\babel@toc {latin}{}\relax 
\babel@toc {british}{}\relax 
\contentsline {chapter}{\chapternumberline {1}Kyriale}{4}{}%
\babel@toc {latin}{}\relax 
\babel@toc {british}{}\relax 
\babel@toc {latin}{}\relax 
\babel@toc {british}{}\relax 
\babel@toc {latin}{}\relax 
\babel@toc {british}{}\relax 
\babel@toc {latin}{}\relax 
\babel@toc {british}{}\relax 
\babel@toc {latin}{}\relax 
\babel@toc {british}{}\relax 
\babel@toc {latin}{}\relax 
\babel@toc {british}{}\relax 
\babel@toc {latin}{}\relax 
\babel@toc {british}{}\relax 
\babel@toc {latin}{}\relax 
\babel@toc {british}{}\relax 
\babel@toc {latin}{}\relax 
\babel@toc {british}{}\relax 
\babel@toc {latin}{}\relax 
\babel@toc {british}{}\relax 
\babel@toc {latin}{}\relax 
\babel@toc {british}{}\relax 
\babel@toc {latin}{}\relax 
\babel@toc {british}{}\relax 
\babel@toc {latin}{}\relax 
\babel@toc {british}{}\relax 
\babel@toc {latin}{}\relax 
\babel@toc {british}{}\relax 
\babel@toc {latin}{}\relax 
\babel@toc {british}{}\relax 
\babel@toc {latin}{}\relax 
\babel@toc {british}{}\relax 
\babel@toc {latin}{}\relax 
\babel@toc {british}{}\relax 
\babel@toc {latin}{}\relax 
\babel@toc {british}{}\relax 
\babel@toc {latin}{}\relax 
\babel@toc {british}{}\relax 
\babel@toc {latin}{}\relax 
\babel@toc {british}{}\relax 
\contentsline {section}{VIII --- For feasts of the II class.}{5}{}%
\contentsline {subsection}{De angelis}{5}{}%
\contentsline {section}{XVII --- For the Sundays of Advent and Lent.}{8}{}%
\contentsline {subsection}{}{8}{}%
\contentsline {section}{XVIII --- For the ferias of Advent and Lent.}{9}{}%
\contentsline {subsection}{Deus Genitor alme}{9}{}%
\contentsline {section}{Credo III}{10}{}%
\contentsline {chapter}{\chapternumberline {2}Hymns for the Church's Year}{13}{}%
\contentsline {chapter}{\chapternumberline {3}Benediction of the Blessed Sacrament}{21}{}%
\babel@toc {latin}{}\relax 
\babel@toc {british}{}\relax 
\babel@toc {latin}{}\relax 
\babel@toc {british}{}\relax 
\babel@toc {latin}{}\relax 
\babel@toc {british}{}\relax 
\babel@toc {latin}{}\relax 
\babel@toc {british}{}\relax 
\babel@toc {latin}{}\relax 
\babel@toc {british}{}\relax 
\babel@toc {latin}{}\relax 
\babel@toc {british}{}\relax 
\babel@toc {latin}{}\relax 
\babel@toc {british}{}\relax 
\babel@toc {latin}{}\relax 
\babel@toc {british}{}\relax 
\babel@toc {latin}{}\relax 
\babel@toc {british}{}\relax 
\babel@toc {latin}{}\relax 
\babel@toc {british}{}\relax 
\babel@toc {latin}{}\relax 
\babel@toc {british}{}\relax 
\babel@toc {latin}{}\relax 
\babel@toc {british}{}\relax 
\babel@toc {latin}{}\relax 
\babel@toc {british}{}\relax 
\babel@toc {latin}{}\relax 
\babel@toc {british}{}\relax 
\babel@toc {latin}{}\relax 
\babel@toc {british}{}\relax 
\babel@toc {latin}{}\relax 
\babel@toc {british}{}\relax 
\babel@toc {latin}{}\relax 
\babel@toc {british}{}\relax 
\babel@toc {latin}{}\relax 
\babel@toc {british}{}\relax 
\babel@toc {latin}{}\relax 
\babel@toc {british}{}\relax 
\babel@toc {latin}{}\relax 
\babel@toc {british}{}\relax 
\contentsline {chapter}{Index of First Lines}{33}{}%
