\babel@toc {latin}{}\relax 
\babel@toc {british}{}\relax 
\contentsline {chapter}{\chapternumberline {1}Epistles and Gospels for Sundays and Holy Days}{5}{}%
\contentsline {section}{Proper of the Season}{5}{}%
\contentsline {section}{Proper of the Saints}{52}{}%
\contentsline {chapter}{\chapternumberline {2}The Holy Sacrifice of the Mass}{77}{}%
\contentsline {section}{The Asperges}{77}{}%
\babel@toc {latin}{}\relax 
\babel@toc {british}{}\relax 
\babel@toc {latin}{}\relax 
\babel@toc {british}{}\relax 
\babel@toc {latin}{}\relax 
\babel@toc {british}{}\relax 
\babel@toc {latin}{}\relax 
\babel@toc {british}{}\relax 
\babel@toc {latin}{}\relax 
\babel@toc {british}{}\relax 
\babel@toc {latin}{}\relax 
\babel@toc {british}{}\relax 
\babel@toc {latin}{}\relax 
\babel@toc {british}{}\relax 
\babel@toc {latin}{}\relax 
\babel@toc {british}{}\relax 
\babel@toc {latin}{}\relax 
\babel@toc {british}{}\relax 
\babel@toc {latin}{}\relax 
\babel@toc {british}{}\relax 
\babel@toc {latin}{}\relax 
\babel@toc {british}{}\relax 
\babel@toc {latin}{}\relax 
\babel@toc {british}{}\relax 
\babel@toc {latin}{}\relax 
\babel@toc {british}{}\relax 
\babel@toc {latin}{}\relax 
\babel@toc {british}{}\relax 
\babel@toc {latin}{}\relax 
\babel@toc {british}{}\relax 
\babel@toc {latin}{}\relax 
\babel@toc {british}{}\relax 
\babel@toc {latin}{}\relax 
\babel@toc {british}{}\relax 
\babel@toc {latin}{}\relax 
\babel@toc {british}{}\relax 
\babel@toc {latin}{}\relax 
\babel@toc {british}{}\relax 
\babel@toc {latin}{}\relax 
\babel@toc {british}{}\relax 
\babel@toc {latin}{}\relax 
\babel@toc {british}{}\relax 
\babel@toc {latin}{}\relax 
\babel@toc {british}{}\relax 
\babel@toc {latin}{}\relax 
\babel@toc {british}{}\relax 
\babel@toc {latin}{}\relax 
\babel@toc {british}{}\relax 
\babel@toc {latin}{}\relax 
\babel@toc {british}{}\relax 
\babel@toc {latin}{}\relax 
\babel@toc {british}{}\relax 
\babel@toc {latin}{}\relax 
\babel@toc {british}{}\relax 
\babel@toc {latin}{}\relax 
\babel@toc {british}{}\relax 
\babel@toc {latin}{}\relax 
\babel@toc {british}{}\relax 
\babel@toc {latin}{}\relax 
\babel@toc {british}{}\relax 
\babel@toc {latin}{}\relax 
\babel@toc {british}{}\relax 
\babel@toc {latin}{}\relax 
\babel@toc {british}{}\relax 
\babel@toc {latin}{}\relax 
\babel@toc {british}{}\relax 
\babel@toc {latin}{}\relax 
\babel@toc {british}{}\relax 
\babel@toc {latin}{}\relax 
\babel@toc {british}{}\relax 
\babel@toc {latin}{}\relax 
\babel@toc {british}{}\relax 
\babel@toc {latin}{}\relax 
\babel@toc {british}{}\relax 
\babel@toc {latin}{}\relax 
\babel@toc {british}{}\relax 
\babel@toc {latin}{}\relax 
\babel@toc {british}{}\relax 
\babel@toc {latin}{}\relax 
\babel@toc {british}{}\relax 
\babel@toc {latin}{}\relax 
\babel@toc {british}{}\relax 
\babel@toc {latin}{}\relax 
\babel@toc {british}{}\relax 
\babel@toc {latin}{}\relax 
\babel@toc {british}{}\relax 
\babel@toc {latin}{}\relax 
\babel@toc {british}{}\relax 
\babel@toc {latin}{}\relax 
\babel@toc {british}{}\relax 
\babel@toc {latin}{}\relax 
\babel@toc {british}{}\relax 
\babel@toc {latin}{}\relax 
\babel@toc {british}{}\relax 
\babel@toc {latin}{}\relax 
\babel@toc {british}{}\relax 
\babel@toc {latin}{}\relax 
\babel@toc {british}{}\relax 
\babel@toc {latin}{}\relax 
\babel@toc {british}{}\relax 
\babel@toc {latin}{}\relax 
\babel@toc {british}{}\relax 
\babel@toc {latin}{}\relax 
\babel@toc {british}{}\relax 
\babel@toc {latin}{}\relax 
\babel@toc {british}{}\relax 
\babel@toc {latin}{}\relax 
\babel@toc {british}{}\relax 
\babel@toc {latin}{}\relax 
\babel@toc {british}{}\relax 
\babel@toc {latin}{}\relax 
\babel@toc {british}{}\relax 
\babel@toc {latin}{}\relax 
\babel@toc {british}{}\relax 
\babel@toc {latin}{}\relax 
\babel@toc {british}{}\relax 
\babel@toc {latin}{}\relax 
\babel@toc {british}{}\relax 
\babel@toc {latin}{}\relax 
\babel@toc {british}{}\relax 
\contentsline {section}{Mass of the Catechumens}{80}{}%
\babel@toc {latin}{}\relax 
\babel@toc {british}{}\relax 
\babel@toc {latin}{}\relax 
\babel@toc {british}{}\relax 
\babel@toc {latin}{}\relax 
\babel@toc {british}{}\relax 
\babel@toc {latin}{}\relax 
\babel@toc {british}{}\relax 
\babel@toc {latin}{}\relax 
\babel@toc {british}{}\relax 
\babel@toc {latin}{}\relax 
\babel@toc {british}{}\relax 
\babel@toc {latin}{}\relax 
\babel@toc {british}{}\relax 
\babel@toc {latin}{}\relax 
\babel@toc {british}{}\relax 
\babel@toc {latin}{}\relax 
\babel@toc {british}{}\relax 
\babel@toc {latin}{}\relax 
\babel@toc {british}{}\relax 
\babel@toc {latin}{}\relax 
\babel@toc {british}{}\relax 
\babel@toc {latin}{}\relax 
\babel@toc {british}{}\relax 
\babel@toc {latin}{}\relax 
\babel@toc {british}{}\relax 
\babel@toc {latin}{}\relax 
\babel@toc {british}{}\relax 
\babel@toc {latin}{}\relax 
\babel@toc {british}{}\relax 
\babel@toc {latin}{}\relax 
\babel@toc {british}{}\relax 
\babel@toc {latin}{}\relax 
\babel@toc {british}{}\relax 
\babel@toc {latin}{}\relax 
\babel@toc {british}{}\relax 
\babel@toc {latin}{}\relax 
\babel@toc {british}{}\relax 
\babel@toc {latin}{}\relax 
\babel@toc {british}{}\relax 
\babel@toc {latin}{}\relax 
\babel@toc {british}{}\relax 
\babel@toc {latin}{}\relax 
\babel@toc {british}{}\relax 
\babel@toc {latin}{}\relax 
\babel@toc {british}{}\relax 
\babel@toc {latin}{}\relax 
\babel@toc {british}{}\relax 
\babel@toc {latin}{}\relax 
\babel@toc {british}{}\relax 
\babel@toc {latin}{}\relax 
\babel@toc {british}{}\relax 
\babel@toc {latin}{}\relax 
\babel@toc {british}{}\relax 
\babel@toc {latin}{}\relax 
\babel@toc {british}{}\relax 
\babel@toc {latin}{}\relax 
\babel@toc {british}{}\relax 
\babel@toc {latin}{}\relax 
\babel@toc {british}{}\relax 
\babel@toc {latin}{}\relax 
\babel@toc {british}{}\relax 
\babel@toc {latin}{}\relax 
\babel@toc {british}{}\relax 
\babel@toc {latin}{}\relax 
\babel@toc {british}{}\relax 
\babel@toc {latin}{}\relax 
\babel@toc {british}{}\relax 
\babel@toc {latin}{}\relax 
\babel@toc {british}{}\relax 
\babel@toc {latin}{}\relax 
\babel@toc {british}{}\relax 
\babel@toc {latin}{}\relax 
\babel@toc {british}{}\relax 
\babel@toc {latin}{}\relax 
\babel@toc {british}{}\relax 
\babel@toc {latin}{}\relax 
\babel@toc {british}{}\relax 
\babel@toc {latin}{}\relax 
\babel@toc {british}{}\relax 
\babel@toc {latin}{}\relax 
\babel@toc {british}{}\relax 
\babel@toc {latin}{}\relax 
\babel@toc {british}{}\relax 
\babel@toc {latin}{}\relax 
\babel@toc {british}{}\relax 
\babel@toc {latin}{}\relax 
\babel@toc {british}{}\relax 
\babel@toc {latin}{}\relax 
\babel@toc {british}{}\relax 
\babel@toc {latin}{}\relax 
\babel@toc {british}{}\relax 
\babel@toc {latin}{}\relax 
\babel@toc {british}{}\relax 
\babel@toc {latin}{}\relax 
\babel@toc {british}{}\relax 
\babel@toc {latin}{}\relax 
\babel@toc {british}{}\relax 
\babel@toc {latin}{}\relax 
\babel@toc {british}{}\relax 
\babel@toc {latin}{}\relax 
\babel@toc {british}{}\relax 
\babel@toc {latin}{}\relax 
\babel@toc {british}{}\relax 
\babel@toc {latin}{}\relax 
\babel@toc {british}{}\relax 
\babel@toc {latin}{}\relax 
\babel@toc {british}{}\relax 
\babel@toc {latin}{}\relax 
\babel@toc {british}{}\relax 
\babel@toc {latin}{}\relax 
\babel@toc {british}{}\relax 
\babel@toc {latin}{}\relax 
\babel@toc {british}{}\relax 
\babel@toc {latin}{}\relax 
\babel@toc {british}{}\relax 
\babel@toc {latin}{}\relax 
\babel@toc {british}{}\relax 
\babel@toc {latin}{}\relax 
\babel@toc {british}{}\relax 
\babel@toc {latin}{}\relax 
\babel@toc {british}{}\relax 
\babel@toc {latin}{}\relax 
\babel@toc {british}{}\relax 
\babel@toc {latin}{}\relax 
\babel@toc {british}{}\relax 
\babel@toc {latin}{}\relax 
\babel@toc {british}{}\relax 
\babel@toc {latin}{}\relax 
\babel@toc {british}{}\relax 
\babel@toc {latin}{}\relax 
\babel@toc {british}{}\relax 
\babel@toc {latin}{}\relax 
\babel@toc {british}{}\relax 
\babel@toc {latin}{}\relax 
\babel@toc {british}{}\relax 
\babel@toc {latin}{}\relax 
\babel@toc {british}{}\relax 
\babel@toc {latin}{}\relax 
\babel@toc {british}{}\relax 
\babel@toc {latin}{}\relax 
\babel@toc {british}{}\relax 
\babel@toc {latin}{}\relax 
\babel@toc {british}{}\relax 
\babel@toc {latin}{}\relax 
\babel@toc {british}{}\relax 
\babel@toc {latin}{}\relax 
\babel@toc {british}{}\relax 
\babel@toc {latin}{}\relax 
\babel@toc {british}{}\relax 
\babel@toc {latin}{}\relax 
\babel@toc {british}{}\relax 
\babel@toc {latin}{}\relax 
\babel@toc {british}{}\relax 
\babel@toc {latin}{}\relax 
\babel@toc {british}{}\relax 
\babel@toc {latin}{}\relax 
\babel@toc {british}{}\relax 
\babel@toc {latin}{}\relax 
\babel@toc {british}{}\relax 
\babel@toc {latin}{}\relax 
\babel@toc {british}{}\relax 
\babel@toc {latin}{}\relax 
\babel@toc {british}{}\relax 
\babel@toc {latin}{}\relax 
\babel@toc {british}{}\relax 
\babel@toc {latin}{}\relax 
\babel@toc {british}{}\relax 
\babel@toc {latin}{}\relax 
\babel@toc {british}{}\relax 
\babel@toc {latin}{}\relax 
\babel@toc {british}{}\relax 
\babel@toc {latin}{}\relax 
\babel@toc {british}{}\relax 
\babel@toc {latin}{}\relax 
\babel@toc {british}{}\relax 
\babel@toc {latin}{}\relax 
\babel@toc {british}{}\relax 
\babel@toc {latin}{}\relax 
\babel@toc {british}{}\relax 
\babel@toc {latin}{}\relax 
\babel@toc {british}{}\relax 
\babel@toc {latin}{}\relax 
\babel@toc {british}{}\relax 
\babel@toc {latin}{}\relax 
\babel@toc {british}{}\relax 
\babel@toc {latin}{}\relax 
\babel@toc {british}{}\relax 
\babel@toc {latin}{}\relax 
\babel@toc {british}{}\relax 
\babel@toc {latin}{}\relax 
\babel@toc {british}{}\relax 
\babel@toc {latin}{}\relax 
\babel@toc {british}{}\relax 
\babel@toc {latin}{}\relax 
\babel@toc {british}{}\relax 
\babel@toc {latin}{}\relax 
\babel@toc {british}{}\relax 
\babel@toc {latin}{}\relax 
\babel@toc {british}{}\relax 
\babel@toc {latin}{}\relax 
\babel@toc {british}{}\relax 
\babel@toc {latin}{}\relax 
\babel@toc {british}{}\relax 
\babel@toc {latin}{}\relax 
\babel@toc {british}{}\relax 
\babel@toc {latin}{}\relax 
\babel@toc {british}{}\relax 
\babel@toc {latin}{}\relax 
\babel@toc {british}{}\relax 
\babel@toc {latin}{}\relax 
\babel@toc {british}{}\relax 
\babel@toc {latin}{}\relax 
\babel@toc {british}{}\relax 
\babel@toc {latin}{}\relax 
\babel@toc {british}{}\relax 
\babel@toc {latin}{}\relax 
\babel@toc {british}{}\relax 
\babel@toc {latin}{}\relax 
\babel@toc {british}{}\relax 
\babel@toc {latin}{}\relax 
\babel@toc {british}{}\relax 
\babel@toc {latin}{}\relax 
\babel@toc {british}{}\relax 
\babel@toc {latin}{}\relax 
\babel@toc {british}{}\relax 
\babel@toc {latin}{}\relax 
\babel@toc {british}{}\relax 
\babel@toc {latin}{}\relax 
\babel@toc {british}{}\relax 
\babel@toc {latin}{}\relax 
\babel@toc {british}{}\relax 
\babel@toc {latin}{}\relax 
\babel@toc {british}{}\relax 
\babel@toc {latin}{}\relax 
\babel@toc {british}{}\relax 
\babel@toc {latin}{}\relax 
\babel@toc {british}{}\relax 
\babel@toc {latin}{}\relax 
\babel@toc {british}{}\relax 
\babel@toc {latin}{}\relax 
\babel@toc {british}{}\relax 
\babel@toc {latin}{}\relax 
\babel@toc {british}{}\relax 
\babel@toc {latin}{}\relax 
\babel@toc {british}{}\relax 
\babel@toc {latin}{}\relax 
\babel@toc {british}{}\relax 
\babel@toc {latin}{}\relax 
\babel@toc {british}{}\relax 
\babel@toc {latin}{}\relax 
\babel@toc {british}{}\relax 
\babel@toc {latin}{}\relax 
\babel@toc {british}{}\relax 
\babel@toc {latin}{}\relax 
\babel@toc {british}{}\relax 
\babel@toc {latin}{}\relax 
\babel@toc {british}{}\relax 
\babel@toc {latin}{}\relax 
\babel@toc {british}{}\relax 
\babel@toc {latin}{}\relax 
\babel@toc {british}{}\relax 
\babel@toc {latin}{}\relax 
\babel@toc {british}{}\relax 
\babel@toc {latin}{}\relax 
\babel@toc {british}{}\relax 
\babel@toc {latin}{}\relax 
\babel@toc {british}{}\relax 
\babel@toc {latin}{}\relax 
\babel@toc {british}{}\relax 
\babel@toc {latin}{}\relax 
\babel@toc {british}{}\relax 
\babel@toc {latin}{}\relax 
\babel@toc {british}{}\relax 
\babel@toc {latin}{}\relax 
\babel@toc {british}{}\relax 
\babel@toc {latin}{}\relax 
\babel@toc {british}{}\relax 
\babel@toc {latin}{}\relax 
\babel@toc {british}{}\relax 
\babel@toc {latin}{}\relax 
\babel@toc {british}{}\relax 
\babel@toc {latin}{}\relax 
\babel@toc {british}{}\relax 
\babel@toc {latin}{}\relax 
\babel@toc {british}{}\relax 
\babel@toc {latin}{}\relax 
\babel@toc {british}{}\relax 
\babel@toc {latin}{}\relax 
\babel@toc {british}{}\relax 
\babel@toc {latin}{}\relax 
\babel@toc {british}{}\relax 
\babel@toc {latin}{}\relax 
\babel@toc {british}{}\relax 
\babel@toc {latin}{}\relax 
\babel@toc {british}{}\relax 
\babel@toc {latin}{}\relax 
\babel@toc {british}{}\relax 
\babel@toc {latin}{}\relax 
\babel@toc {british}{}\relax 
\babel@toc {latin}{}\relax 
\babel@toc {british}{}\relax 
\babel@toc {latin}{}\relax 
\babel@toc {british}{}\relax 
\babel@toc {latin}{}\relax 
\babel@toc {british}{}\relax 
\babel@toc {latin}{}\relax 
\babel@toc {british}{}\relax 
\babel@toc {latin}{}\relax 
\babel@toc {british}{}\relax 
\babel@toc {latin}{}\relax 
\babel@toc {british}{}\relax 
\babel@toc {latin}{}\relax 
\babel@toc {british}{}\relax 
\babel@toc {latin}{}\relax 
\babel@toc {british}{}\relax 
\babel@toc {latin}{}\relax 
\babel@toc {british}{}\relax 
\babel@toc {latin}{}\relax 
\babel@toc {british}{}\relax 
\babel@toc {latin}{}\relax 
\babel@toc {british}{}\relax 
\babel@toc {latin}{}\relax 
\babel@toc {british}{}\relax 
\babel@toc {latin}{}\relax 
\babel@toc {british}{}\relax 
\babel@toc {latin}{}\relax 
\babel@toc {british}{}\relax 
\babel@toc {latin}{}\relax 
\babel@toc {british}{}\relax 
\babel@toc {latin}{}\relax 
\babel@toc {british}{}\relax 
\babel@toc {latin}{}\relax 
\babel@toc {british}{}\relax 
\babel@toc {latin}{}\relax 
\babel@toc {british}{}\relax 
\contentsline {section}{Mass of the Faithful}{87}{}%
\babel@toc {latin}{}\relax 
\babel@toc {british}{}\relax 
\babel@toc {latin}{}\relax 
\babel@toc {british}{}\relax 
\babel@toc {latin}{}\relax 
\babel@toc {british}{}\relax 
\babel@toc {latin}{}\relax 
\babel@toc {british}{}\relax 
\babel@toc {latin}{}\relax 
\babel@toc {british}{}\relax 
\babel@toc {latin}{}\relax 
\babel@toc {british}{}\relax 
\babel@toc {latin}{}\relax 
\babel@toc {british}{}\relax 
\babel@toc {latin}{}\relax 
\babel@toc {british}{}\relax 
\babel@toc {latin}{}\relax 
\babel@toc {british}{}\relax 
\babel@toc {latin}{}\relax 
\babel@toc {british}{}\relax 
\babel@toc {latin}{}\relax 
\babel@toc {british}{}\relax 
\babel@toc {latin}{}\relax 
\babel@toc {british}{}\relax 
\babel@toc {latin}{}\relax 
\babel@toc {british}{}\relax 
\babel@toc {latin}{}\relax 
\babel@toc {british}{}\relax 
\babel@toc {latin}{}\relax 
\babel@toc {british}{}\relax 
\babel@toc {latin}{}\relax 
\babel@toc {british}{}\relax 
\babel@toc {latin}{}\relax 
\babel@toc {british}{}\relax 
\babel@toc {latin}{}\relax 
\babel@toc {british}{}\relax 
\babel@toc {latin}{}\relax 
\babel@toc {british}{}\relax 
\babel@toc {latin}{}\relax 
\babel@toc {british}{}\relax 
\babel@toc {latin}{}\relax 
\babel@toc {british}{}\relax 
\babel@toc {latin}{}\relax 
\babel@toc {british}{}\relax 
\babel@toc {latin}{}\relax 
\babel@toc {british}{}\relax 
\babel@toc {latin}{}\relax 
\babel@toc {british}{}\relax 
\babel@toc {latin}{}\relax 
\babel@toc {british}{}\relax 
\babel@toc {latin}{}\relax 
\babel@toc {british}{}\relax 
\babel@toc {latin}{}\relax 
\babel@toc {british}{}\relax 
\babel@toc {latin}{}\relax 
\babel@toc {british}{}\relax 
\babel@toc {latin}{}\relax 
\babel@toc {british}{}\relax 
\babel@toc {latin}{}\relax 
\babel@toc {british}{}\relax 
\babel@toc {latin}{}\relax 
\babel@toc {british}{}\relax 
\babel@toc {latin}{}\relax 
\babel@toc {british}{}\relax 
\babel@toc {latin}{}\relax 
\babel@toc {british}{}\relax 
\babel@toc {latin}{}\relax 
\babel@toc {british}{}\relax 
\babel@toc {latin}{}\relax 
\babel@toc {british}{}\relax 
\babel@toc {latin}{}\relax 
\babel@toc {british}{}\relax 
\babel@toc {latin}{}\relax 
\babel@toc {british}{}\relax 
\babel@toc {latin}{}\relax 
\babel@toc {british}{}\relax 
\babel@toc {latin}{}\relax 
\babel@toc {british}{}\relax 
\babel@toc {latin}{}\relax 
\babel@toc {british}{}\relax 
\babel@toc {latin}{}\relax 
\babel@toc {british}{}\relax 
\babel@toc {latin}{}\relax 
\babel@toc {british}{}\relax 
\babel@toc {latin}{}\relax 
\babel@toc {british}{}\relax 
\babel@toc {latin}{}\relax 
\babel@toc {british}{}\relax 
\babel@toc {latin}{}\relax 
\babel@toc {british}{}\relax 
\babel@toc {latin}{}\relax 
\babel@toc {british}{}\relax 
\babel@toc {latin}{}\relax 
\babel@toc {british}{}\relax 
\babel@toc {latin}{}\relax 
\babel@toc {british}{}\relax 
\babel@toc {latin}{}\relax 
\babel@toc {british}{}\relax 
\babel@toc {latin}{}\relax 
\babel@toc {british}{}\relax 
\babel@toc {latin}{}\relax 
\babel@toc {british}{}\relax 
\babel@toc {latin}{}\relax 
\babel@toc {british}{}\relax 
\babel@toc {latin}{}\relax 
\babel@toc {british}{}\relax 
\babel@toc {latin}{}\relax 
\babel@toc {british}{}\relax 
\babel@toc {latin}{}\relax 
\babel@toc {british}{}\relax 
\babel@toc {latin}{}\relax 
\babel@toc {british}{}\relax 
\babel@toc {latin}{}\relax 
\babel@toc {british}{}\relax 
\babel@toc {latin}{}\relax 
\babel@toc {british}{}\relax 
\babel@toc {latin}{}\relax 
\babel@toc {british}{}\relax 
\babel@toc {latin}{}\relax 
\babel@toc {british}{}\relax 
\babel@toc {latin}{}\relax 
\babel@toc {british}{}\relax 
\babel@toc {latin}{}\relax 
\babel@toc {british}{}\relax 
\babel@toc {latin}{}\relax 
\babel@toc {british}{}\relax 
\babel@toc {latin}{}\relax 
\babel@toc {british}{}\relax 
\babel@toc {latin}{}\relax 
\babel@toc {british}{}\relax 
\babel@toc {latin}{}\relax 
\babel@toc {british}{}\relax 
\babel@toc {latin}{}\relax 
\babel@toc {british}{}\relax 
\babel@toc {latin}{}\relax 
\babel@toc {british}{}\relax 
\babel@toc {latin}{}\relax 
\babel@toc {british}{}\relax 
\babel@toc {latin}{}\relax 
\babel@toc {british}{}\relax 
\babel@toc {latin}{}\relax 
\babel@toc {british}{}\relax 
\babel@toc {latin}{}\relax 
\babel@toc {british}{}\relax 
\babel@toc {latin}{}\relax 
\babel@toc {british}{}\relax 
\babel@toc {latin}{}\relax 
\babel@toc {british}{}\relax 
\babel@toc {latin}{}\relax 
\babel@toc {british}{}\relax 
\babel@toc {latin}{}\relax 
\babel@toc {british}{}\relax 
\babel@toc {latin}{}\relax 
\babel@toc {british}{}\relax 
\babel@toc {latin}{}\relax 
\babel@toc {british}{}\relax 
\babel@toc {latin}{}\relax 
\babel@toc {british}{}\relax 
\babel@toc {latin}{}\relax 
\babel@toc {british}{}\relax 
\babel@toc {latin}{}\relax 
\babel@toc {british}{}\relax 
\babel@toc {latin}{}\relax 
\babel@toc {british}{}\relax 
\babel@toc {latin}{}\relax 
\babel@toc {british}{}\relax 
\babel@toc {latin}{}\relax 
\babel@toc {british}{}\relax 
\babel@toc {latin}{}\relax 
\babel@toc {british}{}\relax 
\babel@toc {latin}{}\relax 
\babel@toc {british}{}\relax 
\babel@toc {latin}{}\relax 
\babel@toc {british}{}\relax 
\babel@toc {latin}{}\relax 
\babel@toc {british}{}\relax 
\babel@toc {latin}{}\relax 
\babel@toc {british}{}\relax 
\babel@toc {latin}{}\relax 
\babel@toc {british}{}\relax 
\babel@toc {latin}{}\relax 
\babel@toc {british}{}\relax 
\babel@toc {latin}{}\relax 
\babel@toc {british}{}\relax 
\babel@toc {latin}{}\relax 
\babel@toc {british}{}\relax 
\babel@toc {latin}{}\relax 
\babel@toc {british}{}\relax 
\babel@toc {latin}{}\relax 
\babel@toc {british}{}\relax 
\babel@toc {latin}{}\relax 
\babel@toc {british}{}\relax 
\babel@toc {latin}{}\relax 
\babel@toc {british}{}\relax 
\babel@toc {latin}{}\relax 
\babel@toc {british}{}\relax 
\babel@toc {latin}{}\relax 
\babel@toc {british}{}\relax 
\babel@toc {latin}{}\relax 
\babel@toc {british}{}\relax 
\babel@toc {latin}{}\relax 
\babel@toc {british}{}\relax 
\babel@toc {latin}{}\relax 
\babel@toc {british}{}\relax 
\babel@toc {latin}{}\relax 
\babel@toc {british}{}\relax 
\babel@toc {latin}{}\relax 
\babel@toc {british}{}\relax 
\babel@toc {latin}{}\relax 
\babel@toc {british}{}\relax 
\babel@toc {latin}{}\relax 
\babel@toc {british}{}\relax 
\babel@toc {latin}{}\relax 
\babel@toc {british}{}\relax 
\babel@toc {latin}{}\relax 
\babel@toc {british}{}\relax 
\babel@toc {latin}{}\relax 
\babel@toc {british}{}\relax 
\babel@toc {latin}{}\relax 
\babel@toc {british}{}\relax 
\babel@toc {latin}{}\relax 
\babel@toc {british}{}\relax 
\babel@toc {latin}{}\relax 
\babel@toc {british}{}\relax 
\babel@toc {latin}{}\relax 
\babel@toc {british}{}\relax 
\babel@toc {latin}{}\relax 
\babel@toc {british}{}\relax 
\babel@toc {latin}{}\relax 
\babel@toc {british}{}\relax 
\babel@toc {latin}{}\relax 
\babel@toc {british}{}\relax 
\babel@toc {latin}{}\relax 
\babel@toc {british}{}\relax 
\babel@toc {latin}{}\relax 
\babel@toc {british}{}\relax 
\babel@toc {latin}{}\relax 
\babel@toc {british}{}\relax 
\babel@toc {latin}{}\relax 
\babel@toc {british}{}\relax 
\babel@toc {latin}{}\relax 
\babel@toc {british}{}\relax 
\babel@toc {latin}{}\relax 
\babel@toc {british}{}\relax 
\babel@toc {latin}{}\relax 
\babel@toc {british}{}\relax 
\babel@toc {latin}{}\relax 
\babel@toc {british}{}\relax 
\babel@toc {latin}{}\relax 
\babel@toc {british}{}\relax 
\babel@toc {latin}{}\relax 
\babel@toc {british}{}\relax 
\babel@toc {latin}{}\relax 
\babel@toc {british}{}\relax 
\babel@toc {latin}{}\relax 
\babel@toc {british}{}\relax 
\babel@toc {latin}{}\relax 
\babel@toc {british}{}\relax 
\babel@toc {latin}{}\relax 
\babel@toc {british}{}\relax 
\babel@toc {latin}{}\relax 
\babel@toc {british}{}\relax 
\babel@toc {latin}{}\relax 
\babel@toc {british}{}\relax 
\babel@toc {latin}{}\relax 
\babel@toc {british}{}\relax 
\babel@toc {latin}{}\relax 
\babel@toc {british}{}\relax 
\babel@toc {latin}{}\relax 
\babel@toc {british}{}\relax 
\babel@toc {latin}{}\relax 
\babel@toc {british}{}\relax 
\babel@toc {latin}{}\relax 
\babel@toc {british}{}\relax 
\babel@toc {latin}{}\relax 
\babel@toc {british}{}\relax 
\babel@toc {latin}{}\relax 
\babel@toc {british}{}\relax 
\babel@toc {latin}{}\relax 
\babel@toc {british}{}\relax 
\babel@toc {latin}{}\relax 
\babel@toc {british}{}\relax 
\babel@toc {latin}{}\relax 
\babel@toc {british}{}\relax 
\babel@toc {latin}{}\relax 
\babel@toc {british}{}\relax 
\babel@toc {latin}{}\relax 
\babel@toc {british}{}\relax 
\babel@toc {latin}{}\relax 
\babel@toc {british}{}\relax 
\babel@toc {latin}{}\relax 
\babel@toc {british}{}\relax 
\babel@toc {latin}{}\relax 
\babel@toc {british}{}\relax 
\babel@toc {latin}{}\relax 
\babel@toc {british}{}\relax 
\babel@toc {latin}{}\relax 
\babel@toc {british}{}\relax 
\babel@toc {latin}{}\relax 
\babel@toc {british}{}\relax 
\babel@toc {latin}{}\relax 
\babel@toc {british}{}\relax 
\babel@toc {latin}{}\relax 
\babel@toc {british}{}\relax 
\babel@toc {latin}{}\relax 
\babel@toc {british}{}\relax 
\babel@toc {latin}{}\relax 
\babel@toc {british}{}\relax 
\babel@toc {latin}{}\relax 
\babel@toc {british}{}\relax 
\babel@toc {latin}{}\relax 
\babel@toc {british}{}\relax 
\babel@toc {latin}{}\relax 
\babel@toc {british}{}\relax 
\babel@toc {latin}{}\relax 
\babel@toc {british}{}\relax 
\babel@toc {latin}{}\relax 
\babel@toc {british}{}\relax 
\babel@toc {latin}{}\relax 
\babel@toc {british}{}\relax 
\babel@toc {latin}{}\relax 
\babel@toc {british}{}\relax 
\babel@toc {latin}{}\relax 
\babel@toc {british}{}\relax 
\babel@toc {latin}{}\relax 
\babel@toc {british}{}\relax 
\babel@toc {latin}{}\relax 
\babel@toc {british}{}\relax 
\babel@toc {latin}{}\relax 
\babel@toc {british}{}\relax 
\babel@toc {latin}{}\relax 
\babel@toc {british}{}\relax 
\babel@toc {latin}{}\relax 
\babel@toc {british}{}\relax 
\babel@toc {latin}{}\relax 
\babel@toc {british}{}\relax 
\babel@toc {latin}{}\relax 
\babel@toc {british}{}\relax 
\babel@toc {latin}{}\relax 
\babel@toc {british}{}\relax 
\babel@toc {latin}{}\relax 
\babel@toc {british}{}\relax 
\babel@toc {latin}{}\relax 
\babel@toc {british}{}\relax 
\babel@toc {latin}{}\relax 
\babel@toc {british}{}\relax 
\babel@toc {latin}{}\relax 
\babel@toc {british}{}\relax 
\babel@toc {latin}{}\relax 
\babel@toc {british}{}\relax 
\babel@toc {latin}{}\relax 
\babel@toc {british}{}\relax 
\babel@toc {latin}{}\relax 
\babel@toc {british}{}\relax 
\babel@toc {latin}{}\relax 
\babel@toc {british}{}\relax 
\babel@toc {latin}{}\relax 
\babel@toc {british}{}\relax 
\babel@toc {latin}{}\relax 
\babel@toc {british}{}\relax 
\babel@toc {latin}{}\relax 
\babel@toc {british}{}\relax 
\babel@toc {latin}{}\relax 
\babel@toc {british}{}\relax 
\babel@toc {latin}{}\relax 
\babel@toc {british}{}\relax 
\babel@toc {latin}{}\relax 
\babel@toc {british}{}\relax 
\babel@toc {latin}{}\relax 
\babel@toc {british}{}\relax 
\babel@toc {latin}{}\relax 
\babel@toc {british}{}\relax 
\babel@toc {latin}{}\relax 
\babel@toc {british}{}\relax 
\babel@toc {latin}{}\relax 
\babel@toc {british}{}\relax 
\babel@toc {latin}{}\relax 
\babel@toc {british}{}\relax 
\babel@toc {latin}{}\relax 
\babel@toc {british}{}\relax 
\babel@toc {latin}{}\relax 
\babel@toc {british}{}\relax 
\babel@toc {latin}{}\relax 
\babel@toc {british}{}\relax 
\babel@toc {latin}{}\relax 
\babel@toc {british}{}\relax 
\babel@toc {latin}{}\relax 
\babel@toc {british}{}\relax 
\babel@toc {latin}{}\relax 
\babel@toc {british}{}\relax 
\babel@toc {latin}{}\relax 
\babel@toc {british}{}\relax 
\babel@toc {latin}{}\relax 
\babel@toc {british}{}\relax 
\babel@toc {latin}{}\relax 
\babel@toc {british}{}\relax 
\babel@toc {latin}{}\relax 
\babel@toc {british}{}\relax 
\babel@toc {latin}{}\relax 
\babel@toc {british}{}\relax 
\babel@toc {latin}{}\relax 
\babel@toc {british}{}\relax 
\babel@toc {latin}{}\relax 
\babel@toc {british}{}\relax 
\babel@toc {latin}{}\relax 
\babel@toc {british}{}\relax 
\babel@toc {latin}{}\relax 
\babel@toc {british}{}\relax 
\babel@toc {latin}{}\relax 
\babel@toc {british}{}\relax 
\babel@toc {latin}{}\relax 
\babel@toc {british}{}\relax 
\babel@toc {latin}{}\relax 
\babel@toc {british}{}\relax 
\babel@toc {latin}{}\relax 
\babel@toc {british}{}\relax 
\babel@toc {latin}{}\relax 
\babel@toc {british}{}\relax 
\babel@toc {latin}{}\relax 
\babel@toc {british}{}\relax 
\babel@toc {latin}{}\relax 
\babel@toc {british}{}\relax 
\babel@toc {latin}{}\relax 
\babel@toc {british}{}\relax 
\babel@toc {latin}{}\relax 
\babel@toc {british}{}\relax 
\babel@toc {latin}{}\relax 
\babel@toc {british}{}\relax 
\contentsline {section}{Prayers after Low Mass}{103}{}%
\contentsline {chapter}{\chapternumberline {3}Kyriale}{105}{}%
\babel@toc {latin}{}\relax 
\babel@toc {british}{}\relax 
\babel@toc {latin}{}\relax 
\babel@toc {british}{}\relax 
\babel@toc {latin}{}\relax 
\babel@toc {british}{}\relax 
\babel@toc {latin}{}\relax 
\babel@toc {british}{}\relax 
\babel@toc {latin}{}\relax 
\babel@toc {british}{}\relax 
\babel@toc {latin}{}\relax 
\babel@toc {british}{}\relax 
\babel@toc {latin}{}\relax 
\babel@toc {british}{}\relax 
\babel@toc {latin}{}\relax 
\babel@toc {british}{}\relax 
\babel@toc {latin}{}\relax 
\babel@toc {british}{}\relax 
\babel@toc {latin}{}\relax 
\babel@toc {british}{}\relax 
\babel@toc {latin}{}\relax 
\babel@toc {british}{}\relax 
\babel@toc {latin}{}\relax 
\babel@toc {british}{}\relax 
\babel@toc {latin}{}\relax 
\babel@toc {british}{}\relax 
\babel@toc {latin}{}\relax 
\babel@toc {british}{}\relax 
\babel@toc {latin}{}\relax 
\babel@toc {british}{}\relax 
\babel@toc {latin}{}\relax 
\babel@toc {british}{}\relax 
\babel@toc {latin}{}\relax 
\babel@toc {british}{}\relax 
\babel@toc {latin}{}\relax 
\babel@toc {british}{}\relax 
\babel@toc {latin}{}\relax 
\babel@toc {british}{}\relax 
\babel@toc {latin}{}\relax 
\babel@toc {british}{}\relax 
\contentsline {section}{I --- In Paschal Time.}{107}{}%
\contentsline {subsection}{Lux et origo}{107}{}%
\contentsline {section}{II --- For feasts of the I class.}{110}{}%
\contentsline {subsection}{Kyrie fons bonitatis}{110}{}%
\contentsline {section}{IV --- For feasts of the II class.}{113}{}%
\contentsline {subsection}{Cunctipotens Genitor Deus}{113}{}%
\contentsline {section}{VII --- For feasts of the II class.}{116}{}%
\contentsline {subsection}{Kyrie Rex splendens}{116}{}%
\contentsline {section}{VIII --- For feasts of the II class.}{118}{}%
\contentsline {subsection}{De angelis}{118}{}%
\contentsline {section}{IX --- For feasts of the Blessed Virgin.}{121}{}%
\contentsline {subsection}{Cum jubilo}{121}{}%
\contentsline {section}{X --- For feasts of the Blessed Virgin.}{124}{}%
\contentsline {subsection}{Alme Pater}{124}{}%
\contentsline {section}{XI --- For Sundays throughout the Year.}{127}{}%
\contentsline {subsection}{Orbis factor}{127}{}%
\contentsline {section}{XII --- For feasts of the III class.}{129}{}%
\contentsline {subsection}{Pater cuncta}{129}{}%
\contentsline {section}{XIII --- For feasts of the III class.}{132}{}%
\contentsline {subsection}{Stelliferi Conditor orbis}{132}{}%
\contentsline {section}{XVI --- For ferias throughout the Year.}{134}{}%
\contentsline {subsection}{}{134}{}%
\contentsline {section}{XVII --- For the Sundays of Advent and Lent.}{136}{}%
\contentsline {subsection}{}{136}{}%
\contentsline {section}{XVIII --- For the ferias of Advent and Lent.}{137}{}%
\contentsline {subsection}{Deus Genitor alme}{137}{}%
\contentsline {section}{Credo I}{138}{}%
\contentsline {section}{Credo II}{140}{}%
\contentsline {section}{Credo III}{142}{}%
\contentsline {section}{Credo IV}{145}{}%
\contentsline {section}{Credo V}{147}{}%
\contentsline {section}{Credo VI}{149}{}%
\contentsline {chapter}{\chapternumberline {4}Hymns for the Church's Year}{152}{}%
\contentsline {section}{Advent}{152}{}%
\contentsline {section}{Christmas}{161}{}%
\contentsline {section}{Epiphany}{169}{}%
\contentsline {section}{Lent}{172}{}%
\contentsline {section}{Easter}{190}{}%
\contentsline {section}{Pentecost}{199}{}%
\contentsline {section}{Corpus Christi}{205}{}%
\contentsline {section}{Sacred Heart}{218}{}%
\contentsline {section}{Christ the King}{224}{}%
\contentsline {chapter}{\chapternumberline {5}Hymns for the Saints}{227}{}%
\contentsline {section}{Our Lady}{227}{}%
\contentsline {section}{Saints' Days}{249}{}%
\contentsline {section}{Holy Souls}{259}{}%
\contentsline {chapter}{\chapternumberline {6}Hymns for Mass}{265}{}%
\contentsline {section}{Processional/Recessional}{265}{}%
\contentsline {section}{Offertory}{283}{}%
\contentsline {section}{Communion}{286}{}%
\contentsline {chapter}{\chapternumberline {7}Prayers}{288}{}%
\contentsline {section}{Forty Hours Devotion}{288}{}%
\babel@toc {latin}{}\relax 
\babel@toc {british}{}\relax 
\contentsline {section}{Litany of the Holy Name of Jesus}{299}{}%
\contentsline {section}{Litany of the Sacred Heart of Jesus}{303}{}%
\contentsline {section}{Indulgenced prayers to the Sacred Heart}{307}{}%
\contentsline {section}{Litany of the Blessed Virgin Mary}{313}{}%
\contentsline {section}{Perpetual Succour Novena}{317}{}%
\contentsline {section}{Litany of St.~Joseph}{322}{}%
\contentsline {section}{Litany of St.~Peter}{325}{}%
\contentsline {subsection}{Prayer of the Confraternity of St.~Peter}{327}{}%
\contentsline {section}{Novena to St.~Anthony of Padua}{328}{}%
\contentsline {section}{Prayer in times of Epidemics}{329}{}%
\babel@toc {latin}{}\relax 
\babel@toc {british}{}\relax 
\babel@toc {latin}{}\relax 
\babel@toc {british}{}\relax 
\babel@toc {latin}{}\relax 
\babel@toc {british}{}\relax 
\babel@toc {latin}{}\relax 
\babel@toc {british}{}\relax 
\babel@toc {latin}{}\relax 
\babel@toc {british}{}\relax 
\babel@toc {latin}{}\relax 
\babel@toc {british}{}\relax 
\babel@toc {latin}{}\relax 
\babel@toc {british}{}\relax 
\babel@toc {latin}{}\relax 
\babel@toc {british}{}\relax 
\babel@toc {latin}{}\relax 
\babel@toc {british}{}\relax 
\babel@toc {latin}{}\relax 
\babel@toc {british}{}\relax 
\babel@toc {latin}{}\relax 
\babel@toc {british}{}\relax 
\babel@toc {latin}{}\relax 
\babel@toc {british}{}\relax 
\babel@toc {latin}{}\relax 
\babel@toc {british}{}\relax 
\babel@toc {latin}{}\relax 
\babel@toc {british}{}\relax 
\babel@toc {latin}{}\relax 
\babel@toc {british}{}\relax 
\babel@toc {latin}{}\relax 
\babel@toc {british}{}\relax 
\babel@toc {latin}{}\relax 
\babel@toc {british}{}\relax 
\babel@toc {latin}{}\relax 
\babel@toc {british}{}\relax 
\babel@toc {latin}{}\relax 
\babel@toc {british}{}\relax 
\babel@toc {latin}{}\relax 
\babel@toc {british}{}\relax 
\babel@toc {latin}{}\relax 
\babel@toc {british}{}\relax 
\babel@toc {latin}{}\relax 
\babel@toc {british}{}\relax 
\babel@toc {latin}{}\relax 
\babel@toc {british}{}\relax 
\babel@toc {latin}{}\relax 
\babel@toc {british}{}\relax 
\babel@toc {latin}{}\relax 
\babel@toc {british}{}\relax 
\babel@toc {latin}{}\relax 
\babel@toc {british}{}\relax 
\babel@toc {latin}{}\relax 
\babel@toc {british}{}\relax 
\babel@toc {latin}{}\relax 
\babel@toc {british}{}\relax 
\babel@toc {latin}{}\relax 
\babel@toc {british}{}\relax 
\babel@toc {latin}{}\relax 
\babel@toc {british}{}\relax 
\babel@toc {latin}{}\relax 
\babel@toc {british}{}\relax 
\babel@toc {latin}{}\relax 
\babel@toc {british}{}\relax 
\babel@toc {latin}{}\relax 
\babel@toc {british}{}\relax 
\babel@toc {latin}{}\relax 
\babel@toc {british}{}\relax 
\contentsline {section}{Prayer against drought}{330}{}%
\contentsline {section}{Litany of Humility}{331}{}%
\contentsline {chapter}{\chapternumberline {8}Benediction of the Blessed Sacrament}{332}{}%
\babel@toc {latin}{}\relax 
\babel@toc {british}{}\relax 
\babel@toc {latin}{}\relax 
\babel@toc {british}{}\relax 
\babel@toc {latin}{}\relax 
\babel@toc {british}{}\relax 
\babel@toc {latin}{}\relax 
\babel@toc {british}{}\relax 
\babel@toc {latin}{}\relax 
\babel@toc {british}{}\relax 
\babel@toc {latin}{}\relax 
\babel@toc {british}{}\relax 
\babel@toc {latin}{}\relax 
\babel@toc {british}{}\relax 
\babel@toc {latin}{}\relax 
\babel@toc {british}{}\relax 
\babel@toc {latin}{}\relax 
\babel@toc {british}{}\relax 
\babel@toc {latin}{}\relax 
\babel@toc {british}{}\relax 
\babel@toc {latin}{}\relax 
\babel@toc {british}{}\relax 
\babel@toc {latin}{}\relax 
\babel@toc {british}{}\relax 
\babel@toc {latin}{}\relax 
\babel@toc {british}{}\relax 
\babel@toc {latin}{}\relax 
\babel@toc {british}{}\relax 
\babel@toc {latin}{}\relax 
\babel@toc {british}{}\relax 
\babel@toc {latin}{}\relax 
\babel@toc {british}{}\relax 
\babel@toc {latin}{}\relax 
\babel@toc {british}{}\relax 
\babel@toc {latin}{}\relax 
\babel@toc {british}{}\relax 
\babel@toc {latin}{}\relax 
\babel@toc {british}{}\relax 
\babel@toc {latin}{}\relax 
\babel@toc {british}{}\relax 
\contentsline {chapter}{Index of First Lines}{344}{}%
