\babel@toc {latin}{}
\babel@toc {british}{}
\contentsline {chapter}{Contents}{3}%
\contentsline {chapter}{\chapternumberline {1}Blessings of Pilgrims}{4}%
\contentsline {section}{Itinerarium}{4}%
\babel@toc {latin}{}
\babel@toc {british}{}
\babel@toc {latin}{}
\babel@toc {british}{}
\babel@toc {latin}{}
\babel@toc {british}{}
\babel@toc {latin}{}
\babel@toc {british}{}
\babel@toc {latin}{}
\babel@toc {british}{}
\babel@toc {latin}{}
\babel@toc {british}{}
\babel@toc {latin}{}
\babel@toc {british}{}
\babel@toc {latin}{}
\babel@toc {british}{}
\babel@toc {latin}{}
\babel@toc {british}{}
\babel@toc {latin}{}
\babel@toc {british}{}
\babel@toc {latin}{}
\babel@toc {british}{}
\babel@toc {latin}{}
\babel@toc {british}{}
\babel@toc {latin}{}
\babel@toc {british}{}
\babel@toc {latin}{}
\babel@toc {british}{}
\babel@toc {latin}{}
\babel@toc {british}{}
\babel@toc {latin}{}
\babel@toc {british}{}
\babel@toc {latin}{}
\babel@toc {british}{}
\babel@toc {latin}{}
\babel@toc {british}{}
\babel@toc {latin}{}
\babel@toc {british}{}
\babel@toc {latin}{}
\babel@toc {british}{}
\babel@toc {latin}{}
\babel@toc {british}{}
\babel@toc {latin}{}
\babel@toc {british}{}
\babel@toc {latin}{}
\babel@toc {british}{}
\babel@toc {latin}{}
\babel@toc {british}{}
\babel@toc {latin}{}
\babel@toc {british}{}
\babel@toc {latin}{}
\babel@toc {british}{}
\babel@toc {latin}{}
\babel@toc {british}{}
\babel@toc {latin}{}
\babel@toc {british}{}
\babel@toc {latin}{}
\babel@toc {british}{}
\babel@toc {latin}{}
\babel@toc {british}{}
\babel@toc {latin}{}
\babel@toc {british}{}
\babel@toc {latin}{}
\babel@toc {british}{}
\babel@toc {latin}{}
\babel@toc {british}{}
\babel@toc {latin}{}
\babel@toc {british}{}
\babel@toc {latin}{}
\babel@toc {british}{}
\babel@toc {latin}{}
\babel@toc {british}{}
\babel@toc {latin}{}
\babel@toc {british}{}
\babel@toc {latin}{}
\babel@toc {british}{}
\babel@toc {latin}{}
\babel@toc {british}{}
\babel@toc {latin}{}
\babel@toc {british}{}
\babel@toc {latin}{}
\babel@toc {british}{}
\babel@toc {latin}{}
\babel@toc {british}{}
\babel@toc {latin}{}
\babel@toc {british}{}
\babel@toc {latin}{}
\babel@toc {british}{}
\babel@toc {latin}{}
\babel@toc {british}{}
\babel@toc {latin}{}
\babel@toc {british}{}
\babel@toc {latin}{}
\babel@toc {british}{}
\babel@toc {latin}{}
\babel@toc {british}{}
\babel@toc {latin}{}
\babel@toc {british}{}
\babel@toc {latin}{}
\babel@toc {british}{}
\babel@toc {latin}{}
\babel@toc {british}{}
\babel@toc {latin}{}
\babel@toc {british}{}
\babel@toc {latin}{}
\babel@toc {british}{}
\babel@toc {latin}{}
\babel@toc {british}{}
\babel@toc {latin}{}
\babel@toc {british}{}
\babel@toc {latin}{}
\babel@toc {british}{}
\babel@toc {latin}{}
\babel@toc {british}{}
\babel@toc {latin}{}
\babel@toc {british}{}
\babel@toc {latin}{}
\babel@toc {british}{}
\babel@toc {latin}{}
\babel@toc {british}{}
\babel@toc {latin}{}
\babel@toc {british}{}
\babel@toc {latin}{}
\babel@toc {british}{}
\babel@toc {latin}{}
\babel@toc {british}{}
\babel@toc {latin}{}
\babel@toc {british}{}
\babel@toc {latin}{}
\babel@toc {british}{}
\babel@toc {latin}{}
\babel@toc {british}{}
\babel@toc {latin}{}
\babel@toc {british}{}
\babel@toc {latin}{}
\babel@toc {british}{}
\babel@toc {latin}{}
\babel@toc {british}{}
\babel@toc {latin}{}
\babel@toc {british}{}
\babel@toc {latin}{}
\babel@toc {british}{}
\babel@toc {latin}{}
\babel@toc {british}{}
\babel@toc {latin}{}
\babel@toc {british}{}
\babel@toc {latin}{}
\babel@toc {british}{}
\babel@toc {latin}{}
\babel@toc {british}{}
\babel@toc {latin}{}
\babel@toc {british}{}
\babel@toc {latin}{}
\babel@toc {british}{}
\babel@toc {latin}{}
\babel@toc {british}{}
\babel@toc {latin}{}
\babel@toc {british}{}
\babel@toc {latin}{}
\babel@toc {british}{}
\babel@toc {latin}{}
\babel@toc {british}{}
\babel@toc {latin}{}
\babel@toc {british}{}
\babel@toc {latin}{}
\babel@toc {british}{}
\babel@toc {latin}{}
\babel@toc {british}{}
\babel@toc {latin}{}
\babel@toc {british}{}
\babel@toc {latin}{}
\babel@toc {british}{}
\babel@toc {latin}{}
\babel@toc {british}{}
\babel@toc {latin}{}
\babel@toc {british}{}
\babel@toc {latin}{}
\babel@toc {british}{}
\babel@toc {latin}{}
\babel@toc {british}{}
\babel@toc {latin}{}
\babel@toc {british}{}
\babel@toc {latin}{}
\babel@toc {british}{}
\babel@toc {latin}{}
\babel@toc {british}{}
\babel@toc {latin}{}
\babel@toc {british}{}
\babel@toc {latin}{}
\babel@toc {british}{}
\babel@toc {latin}{}
\babel@toc {british}{}
\babel@toc {latin}{}
\babel@toc {british}{}
\babel@toc {latin}{}
\babel@toc {british}{}
\babel@toc {latin}{}
\babel@toc {british}{}
\babel@toc {latin}{}
\babel@toc {british}{}
\babel@toc {latin}{}
\babel@toc {british}{}
\babel@toc {latin}{}
\babel@toc {british}{}
\babel@toc {latin}{}
\babel@toc {british}{}
\babel@toc {latin}{}
\babel@toc {british}{}
\babel@toc {latin}{}
\babel@toc {british}{}
\babel@toc {latin}{}
\babel@toc {british}{}
\babel@toc {latin}{}
\babel@toc {british}{}
\babel@toc {latin}{}
\babel@toc {british}{}
\contentsline {section}{Blessing of staves and scrips.}{10}%
\babel@toc {latin}{}
\babel@toc {british}{}
\babel@toc {latin}{}
\babel@toc {british}{}
\babel@toc {latin}{}
\babel@toc {british}{}
\babel@toc {latin}{}
\babel@toc {british}{}
\babel@toc {latin}{}
\babel@toc {british}{}
\babel@toc {latin}{}
\babel@toc {british}{}
\babel@toc {latin}{}
\babel@toc {british}{}
\babel@toc {latin}{}
\babel@toc {british}{}
\babel@toc {latin}{}
\babel@toc {british}{}
\babel@toc {latin}{}
\babel@toc {british}{}
\babel@toc {latin}{}
\babel@toc {british}{}
\babel@toc {latin}{}
\babel@toc {british}{}
\babel@toc {latin}{}
\babel@toc {british}{}
\babel@toc {latin}{}
\babel@toc {british}{}
\babel@toc {latin}{}
\babel@toc {british}{}
\babel@toc {latin}{}
\babel@toc {british}{}
\babel@toc {latin}{}
\babel@toc {british}{}
\babel@toc {latin}{}
\babel@toc {british}{}
\babel@toc {latin}{}
\babel@toc {british}{}
\babel@toc {latin}{}
\babel@toc {british}{}
\babel@toc {latin}{}
\babel@toc {british}{}
\babel@toc {latin}{}
\babel@toc {british}{}
\babel@toc {latin}{}
\babel@toc {british}{}
\babel@toc {latin}{}
\babel@toc {british}{}
\babel@toc {latin}{}
\babel@toc {british}{}
\babel@toc {latin}{}
\babel@toc {british}{}
\babel@toc {latin}{}
\babel@toc {british}{}
\babel@toc {latin}{}
\babel@toc {british}{}
\babel@toc {latin}{}
\babel@toc {british}{}
\babel@toc {latin}{}
\babel@toc {british}{}
\babel@toc {latin}{}
\babel@toc {british}{}
\babel@toc {latin}{}
\babel@toc {british}{}
\babel@toc {latin}{}
\babel@toc {british}{}
\babel@toc {latin}{}
\babel@toc {british}{}
\babel@toc {latin}{}
\babel@toc {british}{}
\babel@toc {latin}{}
\babel@toc {british}{}
\babel@toc {latin}{}
\babel@toc {british}{}
\babel@toc {latin}{}
\babel@toc {british}{}
\babel@toc {latin}{}
\babel@toc {british}{}
\babel@toc {latin}{}
\babel@toc {british}{}
\babel@toc {latin}{}
\babel@toc {british}{}
\babel@toc {latin}{}
\babel@toc {british}{}
\babel@toc {latin}{}
\babel@toc {british}{}
\babel@toc {latin}{}
\babel@toc {british}{}
\babel@toc {latin}{}
\babel@toc {british}{}
\babel@toc {latin}{}
\babel@toc {british}{}
\babel@toc {latin}{}
\babel@toc {british}{}
\babel@toc {latin}{}
\babel@toc {british}{}
\babel@toc {latin}{}
\babel@toc {british}{}
\babel@toc {latin}{}
\babel@toc {british}{}
\babel@toc {latin}{}
\babel@toc {british}{}
\babel@toc {latin}{}
\babel@toc {british}{}
\babel@toc {latin}{}
\babel@toc {british}{}
\babel@toc {latin}{}
\babel@toc {british}{}
\babel@toc {latin}{}
\babel@toc {british}{}
\babel@toc {latin}{}
\babel@toc {british}{}
\babel@toc {latin}{}
\babel@toc {british}{}
\babel@toc {latin}{}
\babel@toc {british}{}
\babel@toc {latin}{}
\babel@toc {british}{}
\babel@toc {latin}{}
\babel@toc {british}{}
\babel@toc {latin}{}
\babel@toc {british}{}
\babel@toc {latin}{}
\babel@toc {british}{}
\babel@toc {latin}{}
\babel@toc {british}{}
\babel@toc {latin}{}
\babel@toc {british}{}
\babel@toc {latin}{}
\babel@toc {british}{}
\babel@toc {latin}{}
\babel@toc {british}{}
\babel@toc {latin}{}
\babel@toc {british}{}
\babel@toc {latin}{}
\babel@toc {british}{}
\babel@toc {latin}{}
\babel@toc {british}{}
\babel@toc {latin}{}
\babel@toc {british}{}
\babel@toc {latin}{}
\babel@toc {british}{}
\babel@toc {latin}{}
\babel@toc {british}{}
\babel@toc {latin}{}
\babel@toc {british}{}
\babel@toc {latin}{}
\babel@toc {british}{}
\babel@toc {latin}{}
\babel@toc {british}{}
\babel@toc {latin}{}
\babel@toc {british}{}
\babel@toc {latin}{}
\babel@toc {british}{}
\babel@toc {latin}{}
\babel@toc {british}{}
\babel@toc {latin}{}
\babel@toc {british}{}
\babel@toc {latin}{}
\babel@toc {british}{}
\babel@toc {latin}{}
\babel@toc {british}{}
\babel@toc {latin}{}
\babel@toc {british}{}
\contentsline {chapter}{\chapternumberline {2}At Exposition}{15}%
\contentsline {chapter}{\chapternumberline {3}Prayers to begin Adoration}{19}%
\contentsline {chapter}{\chapternumberline {4}Benediction}{20}%
\babel@toc {latin}{}
\babel@toc {british}{}
\babel@toc {latin}{}
\babel@toc {british}{}
\babel@toc {latin}{}
\babel@toc {british}{}
\babel@toc {latin}{}
\babel@toc {british}{}
\babel@toc {latin}{}
\babel@toc {british}{}
\babel@toc {latin}{}
\babel@toc {british}{}
\babel@toc {latin}{}
\babel@toc {british}{}
\babel@toc {latin}{}
\babel@toc {british}{}
\babel@toc {latin}{}
\babel@toc {british}{}
\babel@toc {latin}{}
\babel@toc {british}{}
\contentsline {chapter}{\chapternumberline {5}After Benediction}{23}%
\babel@toc {latin}{}
\babel@toc {british}{}
\babel@toc {latin}{}
\babel@toc {british}{}
\babel@toc {latin}{}
\babel@toc {british}{}
\babel@toc {latin}{}
\babel@toc {british}{}
\babel@toc {latin}{}
\babel@toc {british}{}
\babel@toc {latin}{}
\babel@toc {british}{}
\babel@toc {latin}{}
\babel@toc {british}{}
\babel@toc {latin}{}
\babel@toc {british}{}
\babel@toc {latin}{}
\babel@toc {british}{}
\babel@toc {latin}{}
\babel@toc {british}{}
\babel@toc {latin}{}
\babel@toc {british}{}
\babel@toc {latin}{}
\babel@toc {british}{}
\contentsline {chapter}{\chapternumberline {6}Eucharistic Hymns}{27}%
\contentsline {chapter}{\chapternumberline {7}Other Hymns}{36}%
\contentsline {chapter}{\chapternumberline {8}Prayers}{49}%
\contentsline {section}{Litany of the Sacred Heart of Jesus}{50}%
\contentsline {section}{Indulgenced prayers to the Sacred Heart}{54}%
\contentsline {section}{Litany of the Blessed Virgin Mary}{57}%
\contentsline {section}{Litany of St.~Joseph}{61}%
\contentsline {section}{Daily Prayers}{64}%
\contentsline {subsection}{Morning Offering}{64}%
\contentsline {subsection}{Act of Faith}{65}%
\contentsline {subsection}{Act of Hope}{65}%
\contentsline {subsection}{Act of Charity}{65}%
\contentsline {subsection}{Act of Contrition}{65}%
\contentsline {subsection}{Daily Devotion to the Sacred Heart}{65}%
\contentsline {subsection}{Prayer to Know Your Vocation in Life}{66}%
\contentsline {section}{Prayer Before Mass}{66}%
\contentsline {section}{Prayer After Mass}{67}%
\contentsline {section}{Prayer to End Each Day}{67}%
\contentsline {chapter}{\chapternumberline {9}Kyriale}{69}%
\contentsline {section}{XVII --- For the Sundays of Advent and Lent.}{69}%
\contentsline {subsection}{}{69}%
\contentsline {section}{XVIII --- For the ferias of Advent and Lent.}{71}%
\contentsline {subsection}{Deus Genitor alme}{71}%
\contentsline {section}{Credo I}{72}%
\contentsline {chapter}{Index}{75}%
