%!PS-Adobe-3.0 EPSF-3.0
%%Creator: Adobe Illustrator by AutoTrace version 0.29
%%Title: 
%%CreationDate: Mon Sep 27 18:49:15 2004
%%BoundingBox: 0 0 782 796
%%DocumentData: Clean7Bit
%%EndComments
%%BeginProlog
/bd { bind def } bind def
/incompound false def
/m { moveto } bd
/l { lineto } bd
/c { curveto } bd
/F { incompound not {fill} if } bd
/f { closepath F } bd
/S { stroke } bd
/*u { /incompound true def } bd
/*U { /incompound false def f} bd
/k { setcmykcolor } bd
/K { k } bd
%%EndProlog
%%BeginSetup
%%EndSetup
0.000000 0.000000 0.000000 0.000000 k
*u
0 797 m
0 1 l
782 1 l
782 797 l
0 797 l
f
*U
0.000000 0.000000 0.000000 0.003922 k
*u
101 792 m
101.347 791.306  102 789.855  102 792  c 
101 792 l
f
*U
0.000000 0.000000 0.000000 0.023529 k
*u
99 791 m
99.347 790.306  100 788.855  100 791  c 
99 791 l
f
*U
0.000000 0.000000 0.000000 0.015686 k
*u
100 791 m
100.347 790.306  101 788.855  101 791  c 
100 791 l
f
*U
0.000000 0.000000 0.000000 0.003922 k
*u
97 790 m
97.347 789.306  98 787.855  98 790  c 
97 790 l
f
*U
0.000000 0.000000 0.000000 0.168627 k
*u
98 790 m
98.347 789.306  99 787.855  99 790  c 
98 790 l
f
*U
0.000000 0.000000 0.000000 0.031373 k
*u
99 790 m
99.347 789.306  100 787.855  100 790  c 
99 790 l
f
*U
0.000000 0.000000 0.000000 0.047059 k
*u
96 789 m
96.347 788.306  97 786.855  97 789  c 
96 789 l
f
*U
0.000000 0.000000 0.000000 0.352941 k
*u
97 789 m
97.347 788.306  98 786.855  98 789  c 
97 789 l
f
*U
0.000000 0.000000 0.000000 0.019608 k
*u
98 789 m
98.347 788.306  99 786.855  99 789  c 
98 789 l
f
*U
0.000000 0.000000 0.000000 0.164706 k
*u
95 788 m
95.347 787.306  96 785.855  96 788  c 
95 788 l
f
*U
0.000000 0.000000 0.000000 0.321569 k
*u
96 788 m
96.347 787.306  97 785.855  97 788  c 
96 788 l
f
*U
0.000000 0.000000 0.000000 0.011765 k
*u
97 788 m
97.347 787.306  98 785.855  98 788  c 
97 788 l
f
*U
0.000000 0.000000 0.000000 0.156863 k
*u
94 787 m
94.347 786.306  95 784.855  95 787  c 
94 787 l
f
*U
0.000000 0.000000 0.000000 0.211765 k
*u
95 787 m
95.347 786.306  96 784.855  96 787  c 
95 787 l
f
*U
0.000000 0.000000 0.000000 0.011765 k
*u
96 787 m
96.347 786.306  97 784.855  97 787  c 
96 787 l
f
*U
0.000000 0.000000 0.000000 0.086275 k
*u
93 786 m
93.347 785.306  94 783.855  94 786  c 
93 786 l
f
*U
0.000000 0.000000 0.000000 0.129412 k
*u
94 786 m
94.347 785.306  95 783.855  95 786  c 
94 786 l
f
*U
0.000000 0.000000 0.000000 0.007843 k
*u
95 786 m
95.347 785.306  96 783.855  96 786  c 
95 786 l
f
*U
0.000000 0.000000 0.000000 1.000000 k
*u
370 642 m
369.952 659.418  367.597 676.826  365.209 694  c 
363.697 704.875  363.785 716.332  360.846 727  c 
359 733.472  358.765 741  355.606 746.995  c 
354.530 749  352.866 752.500  350 751.654  c 
343.281 749.667  345.827 736  344.780 731  c 
343.366 724  345.000 718  345 711  c 
345 694.328  345.583 677.600  344 661  c 
343 661 l
342.314 676.724  337.601 692  332.820 707  c 
330.789 713.319  329.340 719  326 725  c 
319.675 721.543  322.805 714.916  321.215 709  c 
318.485 698.839  319.732 690.344  319.985 680  c 
320.192 671.550  319.222 662.298  320.680 654  c 
321.746 647.932  321.670 642  322.281 636  c 
322.439 634.421  323.380 630.364  321 629.782  c 
318.939 629.269  318.315 632.682  318 634  c 
317.258 640.411  316.192 646.602  315 653  c 
314 658.716  312.435 664.504  310.573 670  c 
307.617 678.724  305.376 687.426  302 696  c 
295.418 694.926  295.716 688.642  295.170 683  c 
294.552 676.622  295.313 670.333  294.910 664  c 
294.402 656  293.292 647.932  295 640  c 
294 639 l
292 639 l
289.612 647.233  285.816 655.510  281.177 662.714  c 
279.278 665.665  275 670.957  272.782 664.937  c 
271.505 661.489  273.626 657.486  273.907 654  c 
274.387 648  273.777 641.983  274 636  c 
274.256 631  275.167 626.916  274 622  c 
272 622 l
268.587 630  263.809 637.934  260 645.937  c 
258.983 648  256.836 650  254.777 647.623  c 
252.700 645  253.919 640.919  253.985 638  c 
254 630.775  254.680 623  253 616  c 
238 629 l
238.381 617 l
242 601 l
230 605.534 l
227 599.995 l
231 584 l
230 583 l
227.258 584.562  220.900 590.767  217.603 588.839  c 
212.797 586  218.185 576.844  217.763 573  c 
217.412 570  213.552 569.844  212 567.571  c 
210.593 565.432  211.444 562.548  209.972 560.434  c 
207.178 556.421  200.786 559.443  197 560  c 
199 547 l
193.773 546.695  188 547.686  183 546.852  c 
180.523 546.447  178 544.934  178.752 542  c 
179.459 538.964  183 536.432  185 534  c 
180 532.836  175 532.747  170 533  c 
167 533.284  163.843 534.452  161 533.382  c 
157.480 532  157.771 528.766  160.167 526.379  c 
163.931 522.630  169.850 519.919  175 519  c 
170.762 514.672  165.510 516.306  160 516.830  c 
154 517.386  147.710 517.376  142 515.957  c 
138.533 515  131 512.251  135.362 507.839  c 
136.272 506.883  137.842 506.459  139 505.926  c 
141 504.988  143 503.921  145 502.886  c 
147.908 501.380  150.951 500.183  154 499  c 
143.498 493.946  129.420 498  118 495.596  c 
116.722 495.316  115.221 495  114 494.486  c 
104.244 489  119.647 483.968  124 482.746  c 
127.638 481.725  131.358 481  135 480  c 
129.755 477.476  124.652 478.298  119 477.910  c 
114 477.570  109 476.318  104 476.456  c 
100.460 476.554  94.697 479  91.747 476.247  c 
85.516 470.204  100.770 467  104 466.231  c 
121 462  137.214 457  155 457  c 
155 455 l
87 455 l
72 454.566 l
68.256 449.212 l
80 443.438 l
105 437.449 l
119 434 l
107.729 431.317  95.495 433  84 432.996  c 
77.591 432.920  71.409 431  65 431  c 
56.181 430.898  45 431.233  42 421  c 
76 414.285 l
103 410 l
92.816 405.703  79.882 406.450  69 405.961  c 
58.530 405.489  47.228 403.941  37 401.650  c 
34.706 401  32.360 400.541  30 400.459  c 
26 400.322  18.692 402.818  16.734 397.772  c 
16.285 396.615  16.349 395.214  16.314 393.997  c 
16.265 392.279  15.918 390  17 388.603  c 
18.375 386.851  21 387  23 387  c 
27.715 386.923  32.319 387.569  37 386.789  c 
49.238 384.747  61.622 384.834  74 383.911  c 
78 383.610  81.951 382.373  86 382  c 
93.612 381.556  100.682 382.667  108 380  c 
101.744 377.308  95.557 377.449  89 376.195  c 
79.266 374.333  70.364 371.571  61 368.428  c 
56.706 366.987  49.435 367.534  47 362.867  c 
43.238 355.297  54.797 355  59 355  c 
70.320 354.996  81.761 353.877  93 354  c 
98.682 354  104.280 355  110 355  c 
95 348.410 l
81 343.205 l
66 338 l
69.552 330.957  77.336 333.464  84 332.830  c 
89.915 332.268  95 333  101 333  c 
107.657 333.227  114.381 332.302  121 332.455  c 
126 332.572  130.980 333.784  136 334  c 
131 329.224  123.250 328.360  117 325.882  c 
113.175 324.366  110.261 321.764  107 319.350  c 
104.711 317.655  99.207 315.529  99.207 312  c 
99.207 307.536  108.356 309.338  111 309.255  c 
118.854 309  127 308.756  135 309.208  c 
139.465 309.466  143.488 310.481  148 310  c 
132 296 l
141 298.398  149.413 304.172  158 308.255  c 
161.654 309.993  165.910 312.559  169.981 313  c 
175 313.710  180.305 304.445  177.353 300.228  c 
173.677 294.976  162.536 294.779  157 292  c 
157 291 l
167 291 l
161.376 285.851  154.424 282.622  149 276.999  c 
147.302 275.213  143 271.465  145.662 268.782  c 
147.576 266.762  151.590 267.824  154 267.976  c 
161.602 268.455  169.507 271.774  177 271  c 
174.233 267  168.666 263.581  167 259  c 
165.913 255.199  169.783 252.804  173 252.229  c 
179.441 251  185.615 254.708  192 255  c 
190.910 251.799  188.840 248.374  188.498 245  c 
187.246 232.644  201.805 239.837  207 242  c 
207.514 237.283  204 224.571  212 224.453  c 
216 224.393  219.867 227.552  224 228  c 
223.722 225.204  221.722 220.991  222.708 218.318  c 
224.652 213  234 218.607  237 220  c 
238 219 l
234.888 210.654  232.346 202.913  234 194  c 
249 201 l
249 196.167  247.564 191.650  247.522 187  c 
247.503 184.949  248.472 183  248.482 181  c 
248.491 179  247.360 177  247.863 175.318  c 
248.685 172.350  252.957 173  254.957 174.180  c 
260.791 177.233  263.607 185  269 189  c 
265.703 172 l
263.417 162.171 l
267 156 l
287 179 l
281 133 l
286 133.802  287.178 136.847  289.593 141  c 
291.371 144  293.618 146.759  295 150  c 
297.179 154.676  298 159.537  302 163  c 
300.482 151.245  297.300 139.885  296.170 128  c 
295.914 125.314  294.898 116.429  299.954 117.752  c 
302.981 118.543  304.593 122.502  305.891 125  c 
309 131.261  310.898 140  316 145  c 
315.964 131.974  312.818 119  311.910 106  c 
311.677 102.649  309.658 93.734  315.911 94.466  c 
320.195 94.968  321.366 101.764  322.440 105  c 
325.869 115.334  328.688 127.527  334 137  c 
336.451 126.731  335.608 115.460  335.608 105  c 
335.608 97.338  336.508 89.653  336.374 82  c 
336.307 78  336.892 73.731  338.228 70  c 
338.769 68.591  339.855 66.788  341.741 67.497  c 
344.830 68.659  345 79  345.640 82  c 
348.583 95.924  349.247 112.318  356 125  c 
356.208 116 l
358.220 91.910 l
362 58 l
365.317 41 l
369 37.176 l
372.852 41 l
374.235 57 l
376.170 81 l
379 126 l
380 126 l
380.331 109.951  380.953 92.899  383.301 77  c 
383.806 73.581  385.311 70.415  385.791 67  c 
386.629 61  386.322 54.967  387.467 49  c 
388 45.614  389.573 42.452  389.896 39  c 
390.411 33.487  390.420 27.537  390.429 22  c 
390.441 14.931  390.753 9.921  399 9  c 
397.397 14.993  394.624 20.771  394 27  c 
393.630 31.396  395.192 35.652  394.521 40  c 
393 49  390 57.941  388.464 67  c 
386.974 75.430  386.844 84.463  386.255 93  c 
385.953 97.369  384.586 101.632  384.170 106  c 
383.519 112.830  384 120  384 127  c 
384 146 l
384 149  383.400 152.992  384.603 155.891  c 
386.643 160.805  398.630 162  402.262 158.397  c 
404 156.571  404.320 153.395  404.800 151  c 
406.172 144  406.647 136.954  406 130  c 
405.605 122.218  406.971 114.705  406.971 107  c 
406.971 103.631  406 100.359  406 97  c 
405.983 93.300  406.971 89.699  406.971 86  c 
406.971 80.337  405.706 74.631  405.170 69  c 
404.759 64.679  405.241 60.321  404.830 56  c 
404.251 49.909  403.612 44  402.519 38  c 
402.198 36.242  401.720 33.351  403.545 32.176  c 
406.782 30  406.952 37.535  407.228 39  c 
408.742 47  409 55.802  409 64  c 
408.997 72  410.691 80  410.349 88  c 
409.813 100.426  408.640 113.821  411 126  c 
412 126 l
412 117.328  414.382 108.562  415.704 100  c 
417.605 87.683  418.786 75.854  422.860 64  c 
424.486 59.272  426 54.599  427.221 49.735  c 
427.552 48.269  428 46.194  430 46.206  c 
435.186 46.239  433 57.999  433.619 61  c 
434.719 67.680  434 73.367  434.259 80  c 
434.505 89.663  435 99.300  435 109  c 
440.980 100.926  443 87.725  445.498 78  c 
446.239 74.929  446.566 68  450.244 66.890  c 
452.483 66  453.547 68.220  453.851 70  c 
454.617 74.687  452.786 79.344  453.174 84  c 
454.184 96  454.991 108.809  453.830 121  c 
453.281 126.771  451.838 132.303  451 138  c 
455 135.560  455.589 131  457.333 127  c 
460.597 119.215  463.752 111.526  467.612 104  c 
468.873 101.541  469.776 97.532  472.302 96  c 
478.909 92  480 101.937  479.340 105.910  c 
477.561 115.785  477.897 125.700  476.675 135.576  c 
475.941 141.512  473.489 147  473 153  c 
474 153 l
477.574 143.181  483 131.922  488.680 123  c 
491.540 118.621  497 116.946  499.397 123  c 
501.280 127.897  499.305 134  498.424 139  c 
497.409 144.634  497.270 150.463  495.845 156  c 
494 162.929  490.865 169.940  490 177  c 
496.831 169.390  501.314 159.438  506.999 150.910  c 
508.825 148.172  510.534 142.630  514 141.752  c 
521 140  518.855 149.724  518.325 153  c 
516.363 165  513.198 176.798  508 188  c 
513 184  517 178.356  520.456 173  c 
522.220 170.236  523.479 166.598  526.212 164.608  c 
534 158.854  534.657 172.652  533.915 177  c 
533.342 180.356  532.454 183.625  532 187  c 
535.723 185.737  539.884 181  543.891 181.582  c 
547.614 182  547.855 186  547.560 189  c 
547.195 192.631  547.322 196.404  546.787 200  c 
546.438 202.346  545 204.611  545.179 207  c 
545.232 210.276  547.297 213.764  548 217  c 
550.364 216.326  552.625 215.242  555 214.638  c 
559.732 213.435  563.245 215.927  562.474 221  c 
561.745 225.794  558 229.719  556 234  c 
558.303 234.407  560.602 234.962  562.912 234.262  c 
568 232.669  574.533 226.544  578.853 233.939  c 
580.994 237.605  578 240.868  576.522 243.998  c 
575.814 245.346  574.546 247.724  576 248.978  c 
577.985 250.387  581.418 247.582  583 246.819  c 
586.671 245  591.822 242.729  595.985 243.272  c 
601.515 243.993  603.911 250.213  601.907 255  c 
600.994 257.180  599.468 259  597.815 260.816  c 
595.486 263  592.611 264.986  590 267  c 
594.458 267  597.866 264.485  602 263  c 
604.967 262  607.927 262  611 261.831  c 
613.778 261.558  617 260.507  619.681 262.183  c 
624 265  619.591 269.990  617.843 272.959  c 
616.899 274.564  615.760 276.901  618.256 277.678  c 
620.586 278.404  623.678 277.304  626 276.921  c 
630.345 276.202  634.731 276.374  639 275.526  c 
642.253 274.894  646.723 274.351  646.472 279  c 
646 287.219  638 288.889  632 291.595  c 
627.445 293.692  622.276 297  619 301  c 
630.903 297.920  644.649 294.800  656.985 295  c 
660.649 295  670.496 294.452  667.458 300.972  c 
665.358 305.478  660.240 306.686  656 308.217  c 
648.875 310.790  639.477 313.685  634 319  c 
638.377 318.964  642.638 318  647 318  c 
651.314 317.924  655.713 318.817  660 318.391  c 
664 317.991  667.921 316.524  672 316.460  c 
675 316.411  677.953 317.599  681 317.787  c 
685.249 318  693.881 313.518  696 319  c 
699 326.820  686.680 329.171  682 330.997  c 
675 333.711  668 334.966  661 337  c 
655.271 338.725  649.851 341  644 342.500  c 
639 343.636  633.940 343.821  629 345  c 
629 346 l
635.446 345.723  641.607 343.737  648 343.174  c 
653.257 342.711  658.694 343.998  664 344  c 
672 344  679.954 343  688 343  c 
696.259 343  705.919 340.711  713.985 342.228  c 
717.637 342.916  721.916 347.874  716.772 350  c 
712.182 352  709.624 346.228  704.995 346.622  c 
684.781 348.343  664.196 346.248  644 348.170  c 
637.968 348.744  617.923 348.554  625.858 359.852  c 
629.258 364.692  637.919 363.486  643 362.840  c 
654.350 361.397  665.586 357.695  677 355.996  c 
681.230 355.367  684.724 354.177  689 355  c 
689 357 l
663 364 l
673 364  682.963 362.527  693 362.259  c 
702.248 362  711.752 363.565  721 362.700  c 
726.600 362.176  738.951 358.443  741 366  c 
743 372.747  733 373.224  729 374.269  c 
714.653 377.899  700.294 381.437  686 385  c 
686 387 l
698.216 389.942  711.534 389.940  724 391  c 
730.656 391.726  737.168 394  744 393.456  c 
753.520 392.617  767.654 384  773.499 397  c 
778.750 408.645  759.872 407.920  754 408  c 
744.990 408.223  735.967 409.970  727 409.971  c 
711.859 409.972  696.168 408.867  681 410  c 
681 411 l
711 418.394 l
728 422.569 l
738.681 426 l
739.392 431.973 l
722 432.275 l
684 432.999 l
663 434 l
688 442.505 l
717 451 l
716.214 461.340  707.332 458.242  700 457.289  c 
691.508 456.186  682.569 456.543  674 455.911  c 
668.487 455.505  663.514 453.801  658 455  c 
667.550 459.253  677.847 462.394  686.999 467.515  c 
689.555 468.944  695 471.974  692.914 475.697  c 
690.434 480  680.905 477.747  677 477.285  c 
667.722 476.190  658.305 475.746  649 474.830  c 
643.952 474.334  639 473  634 473  c 
634 474 l
644.795 474.560  656.693 481.696  666 486.861  c 
668.760 488.393  675.234 490.793  673.994 494.934  c 
672.930 498.487  668.228 499.625  665 499.656  c 
656 499.740  646.725 498.405  638 497  c 
641.967 502  652.956 506  653.940 512.945  c 
654.636 517.832  647.926 517.319  645 516.775  c 
634.356 514.795  624.351 510.996  614 508  c 
617.810 512.613  623.340 516.749  628 520.444  c 
630.491 522.313  633.582 523.881  635.353 526.435  c 
638.695 531.258  629.767 535  625.961 534.552  c 
617.898 533.408  611.462 526.991  603 527  c 
604.912 529.662  606.881 532.286  608.718 535  c 
612 539.999 l
615 544.509  614.467 548.971  607.999 548.685  c 
605.242 548.563  602.632 547.199  600 546.489  c 
594.725 545  589.464 544  584 544  c 
587 548  595.650 557  590.397 562.397  c 
585.999 566.804  576.576 561.765  572 560  c 
571.370 568.527  571.811 584.985  559 582.596  c 
556.574 582  554.271 580.925  552 580  c 
552 578 l
556.182 576.763  561.443 577.675  564.411 573.852  c 
567.861 569.410  565.301 561.302  570.394 558  c 
574.220 555.570  581.483 560.756  584.172 557.356  c 
586.665 554.205  580.427 547  577 547.631  c 
574.878 547.942  573.421 550.385  571.830 551.692  c 
568.888 554  565.424 554.864  563 558  c 
560.417 561.628  560.450 566.482  557.566 569.775  c 
555 572.563  549.830 573.260  548.732 577  c 
548 579.414  549.417 581.834  550 584  c 
551.747 590  557.213 606.189  545.996 604.655  c 
544.611 604.466  543.262 603.916  542 603.330  c 
539.942 602.369  537.995 601  536 600  c 
536 607.945  539.430 615.243  540.363 622.985  c 
540.680 625.611  539.265 629.581  535.985 629.404  c 
533.624 629.276  531.693 626.770  530 625.270  c 
527.234 622.490  524.478 620  521 618  c 
520.523 625  523 631.826  522.995 639  c 
522.948 641.549  522.848 646.522  519 646  c 
516 645.762  513.891 642  512.255 639.911  c 
508.655 635.292  505.300 629.685  500 627  c 
499.279 638  502.364 649  501.956 660  c 
501.859 662.599  500.782 670.507  496.371 667.914  c 
493.864 666.439  492.729 662.439  491.448 660  c 
490.223 657.668  488.924 655.377  487.784 653  c 
486 649.403  484.514 645.689  483 642  c 
482 642 l
481.828 655.243  481.541 668.749  480.961 682  c 
480.715 687.608  480.376 693.289  475 696  c 
461 653 l
458.726 657.937  460 662.708  459.961 668  c 
459.533 679.363  459 690.610  459 702  c 
458.990 708  458.883 717.828  452 720  c 
442 694  434.575 664.857  434 637  c 
431 637 l
430 688 l
428 726 l
426.532 746.996 l
422 753.248 l
418 747.995 l
415 730 l
412.795 712 l
408.184 685 l
407.910 665 l
406 652 l
403.760 654.395  401.349 656.791  400.318 660  c 
399.303 663  400 666.739  399.985 670  c 
399.885 674.963  399.252 680  398.910 685  c 
397.304 708.325  397.279 731.858  393.562 755  c 
392.542 761.347  391.274 767.656  390.289 774  c 
389.856 776.792  390.383 780.218  389.316 782.852  c 
388.312 785.330  385.569 786.245  383 785.663  c 
378.780 784.669  379.989 780.281  379.367 777  c 
377.910 769.314  377.571 761.774  376.830 754  c 
375 734.947  375.231 716  375.741 697  c 
375.953 689  373.996 680.966  374.611 673  c 
374.819 670.307  374.670 667.692  374.710 665  c 
374.818 657.738  377.428 646.295  370 642  c 
f
*U
0.000000 0.000000 0.000000 0.082353 k
*u
92 785 m
92.347 784.306  93 782.855  93 785  c 
92 785 l
f
*U
0.000000 0.000000 0.000000 0.090196 k
*u
93 785 m
93.347 784.306  94 782.855  94 785  c 
93 785 l
f
*U
0.000000 0.000000 0.000000 0.066667 k
*u
91 784 m
91.347 783.306  92 781.855  92 784  c 
91 784 l
f
*U
0.000000 0.000000 0.000000 0.019608 k
*u
92 784 m
92.347 783.306  93 781.855  93 784  c 
92 784 l
f
*U
0.000000 0.000000 0.000000 0.003922 k
*u
89 783 m
89.347 782.306  90 780.855  90 783  c 
89 783 l
f
*U
0.000000 0.000000 0.000000 0.015686 k
*u
90 783 m
90.347 782.306  91 780.855  91 783  c 
90 783 l
f
*U
0.000000 0.000000 0.000000 0.000000 k
*u
379 654 m
381 654 l
388.468 665.853 l
395.563 672 l
393 699 l
391.830 730 l
388.536 755 l
386 766 l
382 764.687  381.980 761.876  381.424 758  c 
380.574 752  380.272 745.986  380 740  c 
379.414 723.987  379.909 707.950  379.545 692  c 
379.260 679.539  376 666.313  379 654  c 
f
*U
0.000000 0.000000 0.000000 0.015686 k
*u
71 761 m
71.347 760.306  72 758.855  72 761  c 
71 761 l
f
*U
0.000000 0.000000 0.000000 0.250980 k
*u
70 760 m
70.347 759.306  71 757.855  71 760  c 
70 760 l
f
*U
0.000000 0.000000 0.000000 0.007843 k
*u
71 760 m
71.347 759.306  72 757.855  72 760  c 
71 760 l
f
*U
0.000000 0.000000 0.000000 0.019608 k
*u
70 759 m
70.347 758.306  71 756.855  71 759  c 
70 759 l
f
*U
0.000000 0.000000 0.000000 0.101961 k
*u
69 758 m
69.347 757.306  70 755.855  70 758  c 
69 758 l
f
*U
0.000000 0.000000 0.000000 0.078431 k
*u
67 756 m
67.347 755.306  68 753.855  68 756  c 
67 756 l
f
*U
0.000000 0.000000 0.000000 0.074510 k
*u
66 755 m
66.347 754.306  67 752.855  67 755  c 
66 755 l
f
*U
0.000000 0.000000 0.000000 0.000000 k
*u
350 741 m
349.960 726.330  348.341 711.689  348.961 697  c 
349.170 692  348.365 686.928  348.802 682  c 
349.301 676.390  350.308 671.730  349.576 666  c 
348.713 659.239  350.665 652.741  350.961 646  c 
351 642  349.995 636.846  351.603 633.225  c 
353.296 629.414  363.849 625.584  366.258 630.318  c 
368.782 635.279  365.761 644.488  365.884 650  c 
366 655.611  364.349 660.511  364 666  c 
363.766 670.978  364.409 676  363.816 681  c 
362.974 688  361 694.983  360 702  c 
359.452 707  359.537 711.976  358.269 717  c 
356.938 722.277  355.865 727.659  354.804 733  c 
354 736.853  353.983 739.679  350 741  c 
f
420 735 m
417.463 725.195  417.260 715.000  415.870 705  c 
413.672 689.194  411 673  411 657  c 
410.998 650.528  409.910 643.522  414.174 638  c 
415.965 635.836  418.657 633.634  421.775 634.362  c 
424.426 634.980  424.811 637.678  425.191 639.965  c 
426.185 645.940  426 651.966  426 658  c 
426 677.296  427 696.879  424.271 716  c 
423.414 721.996  424 730.306  420 735  c 
f
326 709 m
324.223 702.988  325 696.239  325 690  c 
325 681.715  324.523 673.267  325 665  c 
325.478 659.323  326.712 653.687  326.961 648  c 
327.223 642  324.724 627.796  334.988 630  c 
343.748 632  340.811 643.581  340.169 650  c 
338.662 665  337 680.552  332.225 695  c 
330.504 700.192  330.281 705.235  326 709  c 
f
452 705 m
445.740 685 l
441.300 665 l
440.715 654 l
439.198 637 l
451 632 l
458.728 648  454.571 667.994  454.571 685  c 
454.571 691.590  456.312 699.395  452 705  c 
f
300 682 m
299 666.597  297.571 650.350  299.428 635  c 
299.904 631  298.818 622.525  303.279 620.619  c 
309.838 617.815  315.438 625.204  314.532 631  c 
312.804 642  310.216 652.243  307.289 663  c 
305.570 669.317  304.564 675.964  302 682  c 
300 682 l
f
474 682 m
470 668  465.716 654.418  464.174 640  c 
463.515 633.841  464.606 626  472.852 626.898  c 
477.773 627.432  475.858 636.626  476 640  c 
476.640 648  476.820 655.928  477 664  c 
477 670.216  477.812 675.925  476 682  c 
474 682 l
f
494 660 m
491 649.851  485.379 640.251  484.232 629.576  c 
483.746 625  483.985 618.932  489.961 618.623  c 
495.259 618.349  494.738 624.432  495.184 628  c 
496.507 638.585  497.778 649.263  498 660  c 
494 660 l
f
278 655 m
276.690 649.816  278.346 644.372  277.715 639  c 
276.951 632.503  278 626.615  278.948 620.169  c 
279.216 618  278.967 615.924  279.767 614  c 
282.448 607.642  291.453 612  294.167 616.304  c 
296.645 620  293.464 624.470  291.897 628  c 
288 636.469  286.919 650.377  278 655  c 
f
382 631 m
378 635 l
372.384 629.563  374 623.342  378.850 618  c 
380.170 616.501  384.501 610.623  386.883 613.662  c 
387.980 615  387.272 617.417  387.169 619  c 
386.987 621.803  387.354 624.287  388 627  c 
390 627 l
393 604 l
397 607.526  398.671 612.463  401.467 617  c 
405.269 623.171  411.956 628.565  405 635  c 
403.710 632.550  399 626  397.573 632  c 
396 638  397.756 644  394.941 649.981  c 
393.865 652.219  392 654.979  389 654.248  c 
386.766 653.659  385.516 651  384.679 648.995  c 
382.277 643.173  383.770 636.973  382 631  c 
f
514 636.654 m
509.000 633.168  500.943 622.514  500.539 616  c 
500.249 611.357  507.465 605.611  511.722 608.647  c 
517.247 612.588  516.671 624.954  517 630.999  c 
517.226 632.176  517.266 638.794  514 636.654  c 
f
259 634 m
257.488 625.833  258.904 617  260.668 609  c 
261.323 606  262.244 601  266 600.967  c 
270.569 600.814  275.335 605.507  274.431 610  c 
273.770 613.288  271 616.255  269.345 619  c 
266 624  263.683 630  259 634  c 
f
410 568 m
420 549 l
415 571 l
419 567.264  421 562.440  421.829 557  c 
422.496 552.273  421.398 547.593  426 545  c 
426 562 l
430.597 556.784  430 549.539  431 543  c 
433 543 l
435 556 l
436 556 l
437.607 551.590  436.846 546.367  438.600 542.259  c 
440.487 537.837  446.224 534.789  449 530.911  c 
451.381 527.826  452.885 523.210  456.329 521.183  c 
460.268 518.865  464.711 521.719  468 523.890  c 
475.498 528.838  481 535.782  486.254 543  c 
488 545.537  490.723 548.747  490.957 552  c 
491.326 557  485.419 561.891  483 566  c 
479.220 572.450  474.429 575.924  469.285 581.171  c 
464 586.469  459 590.687  453 595  c 
449.538 597.536  446.491 600.220  442 600.812  c 
437 601.458  433.429 599.732  429 598  c 
430 603 l
420 595 l
421 603 l
411 595 l
410 580 l
407 580 l
405.543 587.846  406.188 596.239  411.329 602.815  c 
418.534 612  434 613.288  444 608.319  c 
457.279 601.707  469.998 591  479.826 580  c 
488.721 570  496.572 558.904  507 550.378  c 
516.268 542.823  528.170 540  539 535.744  c 
546 532.900  552.364 528.767  557.985 523.714  c 
566.364 516.182  572.354 506.218  573.714 495  c 
574.561 488  572.249 481  565 479  c 
566 483.879  568 487.830  567.960 493  c 
567.687 500  565.445 509.612  559.671 514.298  c 
556.420 516.936  551.836 517.429  548 518.799  c 
544.272 520  540.802 522  537 523.229  c 
530.745 525  524.869 526.209  519 529.299  c 
512.174 532.892  508.685 538.370  502.985 543.266  c 
501 544.855  498.741 547.420  496 547  c 
492.272 546.601  489.756 540.899  488 538  c 
483.176 529  478.762 517.460  479 507  c 
479.350 501.788  483.939 501.907  488 500.652  c 
495.919 498.205  504.339 496.973  510.907 491.471  c 
515.982 487.218  521.880 480.609  525.381 474.999  c 
527 472.174  528.754 466.853  532.213 465.707  c 
534.596 464.917  537.506 466  540 465.945  c 
544 465.606  549.941 464.997  554 465.942  c 
556.510 466.527  558.480 468.381  561 469  c 
565.355 470  571 471  574.401 474.584  c 
575.991 476.228  576.192 478.720  577.545 480.545  c 
579.685 483.432  582.628 485.505  583.987 489  c 
585.191 492  583.773 494.874  583.722 498  c 
583.689 500  584.471 501.974  584.355 504  c 
584.216 506.422  582.869 508.552  582.841 511  c 
582.822 512.684  583.493 514.307  583.316 516  c 
582.567 523  577.337 529.242  573.738 535  c 
572.188 537.479  571.902 540.486  570.262 542.911  c 
566.277 548.800  560 553.691  555.454 559  c 
552.946 561.969  550 564.240  547.468 567  c 
545.978 568.678  545.378 570.883  543.662 572.341  c 
541.382 574.279  538.454 575.198  536.170 577.206  c 
531.539 581.276  527.461 586.310  522.741 590  c 
517.931 594  512.381 597.234  507 600.437  c 
504 602.334  502.240 605.665  498.981 607.427  c 
496 608.985  493 608.589  490 609.583  c 
485.454 611  480.473 612.920  476 614.688  c 
473.188 615.799  470.835 617.784  468 618.856  c 
465 619.959  461.899 619.777  459 620.918  c 
454.193 622.810  449 626.174  444 627  c 
441 627.496  437.943 626.459  435 626.170  c 
430.283 625.706  425.665 625.557  421 624.546  c 
395.318 618.981  395.485 585.679  401.382 566  c 
402.626 561.849  402.616 553.852  405.742 550.742  c 
407.822 548.674  413 548.384  413.231 552  c 
413.530 557.429  410.903 562.896  410 568  c 
f
288 600 m
281 602.387  276.998 598.813  271 595.424  c 
260.512 589.498  251.434 582  242 574.601  c 
229.551 564.702  218.717 554  209.659 541  c 
198.248 524.414  186.885 503.424  193.407 483  c 
196 474.805  200.563 467.579  209 463.938  c 
212.447 462.451  216.364 463  220 463  c 
224.931 462.973  230 462.653  235 462.335  c 
239.394 462  243.716 461.569  248 460.525  c 
250.797 459.844  254 458.521  256.892 459.618  c 
260.294 460.920  261.752 465.290  263.847 467.985  c 
266.179 470.986  269.172 473.260  271.672 476  c 
274 478.738  275.587 481.958  278.210 484.367  c 
284.801 490.421  301 490  303.552 500  c 
304.870 505.243  301.437 509.901  298.745 514  c 
294.878 519.887  291.478 525.978  287.871 532  c 
285.542 535.889  282.828 538.281  283 543  c 
288.626 536.560  293.780 528.964  300 523.213  c 
303 520.548  306.693 518.936  310 516.819  c 
313.433 514.622  319 509.631  323.582 511.619  c 
327.483 513.361  329.383 521.582  331.753 525  c 
336 531.278  342.662 536.373  349 540.533  c 
354 543.921  361 545.488  367 546.790  c 
369.927 547.428  373.978 547.711  375.821 550.430  c 
377.713 553.221  377 557.780  377.899 561  c 
379 565.946  380.663 570.842  380.545 576  c 
380.451 580  378.922 583.988  378.715 588  c 
378.609 590  379.580 591.971  379.428 594  c 
379 598.869  375.284 604.962  371 607  c 
371.356 612.661 l
365.995 616.604 l
354 621 l
352.250 626.255  348.398 623.823  344 623.610  c 
340.804 623.454  338 623.728  335 622.821  c 
328.967 621  323 619  317 617.333  c 
314.386 616.600  311.485 617  309 615.938  c 
306 614.590  304 611.840  301.285 610.374  c 
295.265 607.269  290.976 606.970  288 600  c 
f
533 621 m
526.952 619.302  523.525 614.384  520.711 609  c 
519.490 606.665  517.755 603.869  519 601.210  c 
520.538 598.294  527 594.347  529.825 597.608  c 
532 600.236  532.772 606.679  532.957 610  c 
533 613.649  533 617.346  533 621  c 
f
244 615 m
244.256 609  245.846 602.436  248 597  c 
248.978 595  250.473 592.573  252.985 592.921  c 
256.855 593.457  256.991 598.179  256 601  c 
254 606.574  249.235 612.449  244 615  c 
f
*U
0.000000 0.000000 0.000000 1.000000 k
*u
351 607.546 m
330.923 603.996  312.266 595  298 579.985  c 
289.440 570.774  283.572 558.359  272.996 550.989  c 
265 545.481  255.760 543.512  247 540.276  c 
243.728 539  240.993 536.618  238 534.875  c 
231.875 531.309  226 528.324  221.171 522.996  c 
212 513  204.269 497.502  208.500 484  c 
209.424 481  212.358 471  216.782 471.921  c 
221 472.706  216.310 480.192  215.609 482  c 
211.835 491.730  217 505.227  225 511.540  c 
230.340 515.757  235.707 516.208  242 517.748  c 
250.493 519.828  259.213 522.672  265.907 528.450  c 
271.526 533.301  273.827 539.432  278.394 544.911  c 
283.389 550.904  289.342 556.364  294.601 562.184  c 
299.385 567.478  303.207 573.617  308 578.816  c 
312.356 583.368  317.926 587  323 590.700  c 
330.465 596  340.868 600.449  350 601.637  c 
352.826 602  360 598.194  361.863 600.642  c 
362.956 602  361.686 604  360.562 605  c 
358 607.271  354.258 608  351 607.546  c 
f
*U
0.000000 0.000000 0.000000 0.000000 k
*u
545 583 m
547 600 l
542.930 599.263  535.282 596.382  535.921 590.999  c 
536.243 588.293  538.940 586  540.960 584.603  c 
542.271 583.624  543.472 583.429  545 583  c 
f
232 598 m
232 595.617  232 593.308  232.789 590.998  c 
233.521 588.484  234.796 585.178  237.214 583.817  c 
239.726 582.404  243.684 584  244 587  c 
244.764 592.293  236 596.909  232 598  c 
f
223 581 m
221.697 574.908  225.195 568  231.390 574  c 
232.243 574.900  232.490 575.967  233 577  c 
223 581 l
f
385 570 m
385.347 569.306  386 567.855  386 570  c 
385 570 l
f
394 557 m
397 552 l
394 557 l
f
203 553 m
204.553 547.922  208.181 548.264  210 553  c 
203 553 l
f
588 521 m
596.809 522.782  604.988 534.631  607 543  c 
590 539.589 l
583.816 535.852 l
588 521 l
f
514 472 m
508 475  504.630 481.902  499.545 486.320  c 
488 496.291  472.764 499  460 490.489  c 
457.316 488.671  454.735 486.799  453 483.985  c 
450.365 479.672  451.339 474.767  450.711 470  c 
449.837 463.377  446.831 457.689  441.981 453  c 
435 446.512  424.730 447.813  421.742 458  c 
417.967 470.873  434.191 479.189  441.985 485.518  c 
451.764 493.460  453.226 508  447.559 519  c 
435.475 542.234  405.441 542.595  383 541.374  c 
377.777 541  372 541.786  366.985 540.571  c 
364.505 539.986  362.388 538.516  360 537.683  c 
345.621 532.662  333.511 525.519  331.209 509  c 
329.711 498.250  332.196 487.321  341 480.394  c 
346.474 476  353 474.469  357.776 468.985  c 
362.838 463  366.476 453.343  358.867 447.728  c 
353 443.468  344 445  340.225 451  c 
337.452 455.424  337.673 460.207  336.388 465  c 
334.243 473  328.340 483.792  320 486.501  c 
302.202 492.282  282.929 482.825  271.701 469.169  c 
253.927 447.550  247.495 414.701  256.761 388  c 
260.503 377.217  270.169 367.979  281 364.860  c 
285.948 363.436  290.230 362.342  295 364.970  c 
297 366  299 367.711  301 369.301  c 
309.666 376.683  324.828 393.178  335 377.960  c 
341.834 368  331.487 359  322 357  c 
315.486 355.732  308.568 357.968  302 357.999  c 
298.509 358  294.189 358.610  291.213 356.397  c 
282.365 349.815  282 337.781  282 328  c 
282 324.413  281.571 320.460  282.699 317  c 
285 309.486  291.398 301.324  296.179 295  c 
300.682 289.226  309.759 285.493  316 281.536  c 
319.473 279.334  322.347 276.193  326 274.299  c 
346.649 263.590  380.534 258.287  391.366 285  c 
397.387 299.849  381.483 311.322  380.965 325.424  c 
380.709 332.409  384.911 342  393 341.772  c 
403 341.426  409 331.328  407.377 322  c 
405.928 313.739  400 307  398.510 299  c 
396.679 289.782  403.776 275  413 272.223  c 
417.800 270.766  424 270.996  429 270.766  c 
431.707 270.642  434.290 269.454  437 269.584  c 
440.972 269.775  445 271.462  449 272.410  c 
464.627 276.262  477.224 283.690  488.586 295  c 
498.805 305.324  505.976 316  506 331  c 
506 336.910  507.437 345.644  504.556 350.985  c 
502.659 354.499  499.517 356.243  496.169 358  c 
488.355 362.447  483 363.910  474 362.816  c 
469.226 362.236  464.893 360  460 361.310  c 
452.823 363  443.549 369.597  446 378  c 
448.592 386.492  458.997 391.710  467 387.438  c 
472.569 384.466  476.856 379.390  482 375.785  c 
493 367.993  509 364.654  519.481 375.468  c 
526.245 382.487  525.544 393  526 402  c 
526.198 404.776  527.245 407.277  527.571 410  c 
527.863 412.440  526.891 414.601  526.830 417  c 
526.687 422.609  528 428.314  527 434  c 
526 439.342  523.490 444.851  521.792 450  c 
519.362 457.369  513.434 464  514 472  c 
f
188 540 m
188.944 538.432  189.695 537  191.228 536  c 
193 534.622  195.630 533.837  197.851 535  c 
201.495 537  200.862 541  196.941 541.812  c 
195.699 542  194.248 541.761  193 541.541  c 
191.254 541.223  189.674 540.627  188 540  c 
f
628 530 m
617.252 527.753  604.682 522.944  596 516  c 
592.900 513.636  588 506.866  592 502.847  c 
594.514 500.268  600.768 504.650  603 506  c 
607.389 508.791  610.987 512.808  615 516  c 
620 520.220  626 523.306  628 530  c 
f
167 529 m
168.855 523  175.710 521.802  181 519.731  c 
183.407 518.789  186.248 517.574  188.721 519  c 
195.488 523  188.695 527.721  184 527.960  c 
181.669 528  179.331 527.930  177 528  c 
173.640 528.320  170.380 528.930  167 529  c 
f
*U
0.000000 0.000000 0.000000 1.000000 k
*u
386 469 m
381 470 l
377 460 l
376 475 l
373 474 l
374.408 466.414  375.713 457.533  371 451  c 
370.622 456.892  374 467.491  367 470  c 
367.373 465.272  368.389 460.752  367.535 456  c 
365 442.195  354.718 431.835  343 425  c 
340 423.492  337.229 421.253  334 420.431  c 
324.785 418  314.395 423.260  306 426  c 
302.294 427.369  298 427.912  295.589 431.214  c 
293.920 433.358  293.477 436.297  293 438.910  c 
292 445.505  290.742 454.513  292.572 461  c 
295.939 472.940  309.275 472  315 481  c 
307 484.805  301.715 480.775  296 474.985  c 
289.609 468.425  285.677 460.359  285.470 451  c 
285.266 441.787  288.496 432.897  284.699 424  c 
279.210 411  267.327 401  269.235 386  c 
270 379.396  275 371.709  282 370.434  c 
285.309 369.823  288.901 371  292 372  c 
296.170 373.511  299.381 374.755  301 379  c 
297.463 379.585  295.430 378  292 377.505  c 
287.628 376.825  281.368 378.752  278.499 382  c 
268.564 393.893  284.380 401.338  289.867 410  c 
292.300 413.843  292.818 421.998  298 423.183  c 
300.878 423.825  303.631 421.694  306 420.488  c 
310.265 418.318  314.819 416.950  319 414.572  c 
331.330 407.559  346.740 396.276  344.842 380  c 
344.523 377.282  342.898 375.276  341.831 372.830  c 
339.413 367.289  337.647 362.899  334 358  c 
335 357 l
344 368 l
344.718 360.206  337.176 355.396  334 349  c 
347 361 l
348.702 353 l
345.724 344 l
344.808 334 l
334 311 l
339.347 310.208  341 314.878  343.600 319  c 
348.684 327.468  353.269 336.327  361 342.775  c 
365.390 346.436  373.206 349.372  379 349  c 
384.988 348.943  390.943 346.756  397 347.184  c 
403 347.612  410 350.838  416 349.442  c 
424 347.544  428.658 341.751  434 336.170  c 
438.277 332  442 328.272  444.866 323  c 
446.404 320  448.755 315.679  448.782 312.285  c 
448.803 309.521  446.377 307.244  445 305  c 
440 296.437  429.358 285.528  418 287.743  c 
411.608 289  411 297  406 300  c 
406 295.463  405.457 290  407.938 286  c 
412 279.217  425.945 276.525  432.910 280.175  c 
444.787 286.398  449.423 300.831  461 307.535  c 
471 313.417  485.212 312.390  493.557 321.185  c 
498.842 326.755  507.269 344.352  496 348  c 
495.998 345.349  496 342.613  495.620 340  c 
492.635 325.376  480 327.710  469 323.782  c 
465.588 322.568  457.621 317.213  454.274 318.906  c 
451.487 320.315  449.443 325.422  447.875 328  c 
443.767 334.752  441.240 342.588  438.610 350  c 
436.828 355  434.757 360.521  435.808 366  c 
436.495 369.581  438.924 372.679  440.319 376  c 
441.670 379.213  442 382.575  442.576 386  c 
443.668 393.728  442.212 404.678  447.394 410.946  c 
457.284 422.909  471.529 424.844  485 430  c 
485 432 l
473.581 435.374  460.769 428.183  449 428.455  c 
444.777 428.553  439.726 428.972  436 431  c 
430.701 434  426.981 439.439  422 442.957  c 
417.708 445.989  412.377 447.585  408.576 451.225  c 
397 462  393 476.470  393 492  c 
392.994 495.804  391.771 502.407  394.603 505.436  c 
398.308 509.397  407 508  412 510.313  c 
416 512  420.508 517.646  425 517.522  c 
435.729 517.229  434.920 504.891  442 501  c 
444.814 510.796  438.766 521.245  429 524  c 
416.988 527.524  404 520.426  392 519.300  c 
382.887 518.448  374.772 523  366 523.811  c 
351.795 525  338 511.913  337.213 498  c 
336.972 494.175  339.646 482.912  345.555 484.752  c 
348.761 485.750  346.506 490.943  346 493  c 
344.459 499.949  345.602 506.875  351 511.856  c 
358.766 518.922  369 517.373  378 513.743  c 
381.910 512  386.507 509.616  387.821 505.282  c 
388.979 501.460  387.352 496.858  387 493  c 
386.792 488.630  388 484.303  387.701 480  c 
387.438 476.257  386 472.821  386 469  c 
f
*U
0.000000 0.000000 0.000000 0.000000 k
*u
463 516 m
464 501 l
471.427 502.858 l
474.664 511 l
478 523 l
463 516 l
f
142 510 m
145.899 505.732  151.568 504.180  157 502.576  c 
161.433 501.266  165.606 499.295  170 497.900  c 
172.864 496.992  177.767 495.420  180.698 496.643  c 
184.383 498.180  186.421 507.294  183.972 510.397  c 
181.819 513  176 511.907  173 512  c 
163 512.472  150.770 515.788  142 510  c 
f
307 512 m
310.603 497.514 l
325 492 l
328.377 503.537  316.456 509.296  307 512  c 
f
598 495 m
598 494 l
612.674 489  623 490.928  635 501  c 
638.699 504.193  642.351 506.289  644 511  c 
628.555 510.294  611.168 502.693  598 495  c 
f
665 495 m
659.616 494  654.419 494.307  649 493.910  c 
643.868 493.533  636 491.879  632.742 487.610  c 
631.177 485.627  630 480.846  632.603 479  c 
635 477.437  639.617 480  642 481  c 
648.889 483.864  662.406 487.349  665 495  c 
f
120 491 m
120 488 l
126.801 486  133.944 483.490  141 482.684  c 
155 481  169.242 483  183 486  c 
182 492 l
148 492 l
120 491 l
f
*U
0.000000 0.000000 0.000000 1.000000 k
*u
459 474 m
460 474 l
461.428 476.510  462.649 479  465 480.772  c 
473.372 486.237  485.286 481.606  489.181 472.996  c 
491.940 466.898  489.826 459.423  489.594 453  c 
489.396 447.524  491 442.363  491.336 437  c 
491.492 434.313  490.539 431.692  490.902 429  c 
492.835 414.688  513.694 408.213  511.771 393  c 
510.913 386.213  504.845 382.652  502 377  c 
515 373.239  518.787 392.264  517.829 402  c 
517 409  515.280 416  511.251 422  c 
506.844 428.470  500.869 433.331  498.377 441  c 
493.904 454.767  500 471.970  490.387 483.826  c 
487.284 487.589  481 492.461  476 492.762  c 
466.566 493.325  456.357 483.223  459 474  c 
f
*U
0.000000 0.000000 0.000000 0.000000 k
*u
612 466 m
607 467.448  600.823 465  598 470  c 
603 470.982  607.458 472.591  612.286 474.251  c 
618.876 476.516  622.734 476.394  625 484  c 
614.403 487  604.173 483  595 478  c 
597 487 l
587.899 485.595  587.321 477.386  582.517 471.170  c 
580.753 468.888  576.173 465.759  577.422 462.317  c 
578.679 458.856  585.215 460.212  588 459.610  c 
591.524 458.848  594.474 456.391  598 455.742  c 
604.416 454.562  608.969 461.420  612 466  c 
f
183 480 m
187 471 l
173 477.301 l
156 477 l
157 470.251  162.800 467.198  169 465.490  c 
171.507 464.800  177.869 464.505  177.949 460.856  c 
178 458.347  175 455.253  174 453  c 
181.562 449.444  190.577 455.235  199 453.960  c 
204.337 453  211 452.714  216 450.312  c 
222 447.266  227.269 441.629  234 439.656  c 
239 438.178  242.835 440.612  245 445  c 
238.172 447.576  230.764 446.922  224 449.344  c 
220.984 450.447  219.536 453  216.880 454.760  c 
211.894 457.837  205.964 459.175  201 462.523  c 
197.966 464.574  195.328 466.983  193.245 470  c 
190 474.638  188.968 478.770  183 480  c 
f
109 471 m
136 464.244 l
157 460 l
153.614 476.737  133.822 475.865  121 473.615  c 
116.836 472.884  112.700 473.216  109 471  c 
f
610 448 m
627.409 449.385  644.612 455.711  661 461.255  c 
667.679 463.514  676.948 465.795  681 472  c 
648 469.325 l
624 464 l
617.625 457.300 l
610 448 l
f
349 468 m
354 456 l
356 456 l
357 457 l
355.885 462.176  354.406 466.409  349 468  c 
f
*U
0.000000 0.000000 0.000000 1.000000 k
*u
460 455 m
461 454 l
463 454 l
463 467 l
460 455 l
f
*U
0.000000 0.000000 0.000000 0.000000 k
*u
390 466 m
390 460  389.443 454.835  396 453  c 
396.997 458  394.667 463.496  390 466  c 
f
*U
0.000000 0.000000 0.000000 1.000000 k
*u
456 466 m
454 455 l
458 457.216  458.192 460.731  459 465  c 
458 466 l
456 466 l
f
*U
0.000000 0.000000 0.000000 0.000000 k
*u
438.851 461.744 m
436.796 461.281  435 460.725  433.851 458.805  c 
432.518 456.718  433.346 454.200  436 454.582  c 
438 454.847  440 456.271  440.824 458  c 
441.340 459.332  440.875 462.200  438.851 461.744  c 
f
*U
0.000000 0.000000 0.000000 1.000000 k
*u
469 462 m
467 450 l
470 450 l
469 462 l
f
*U
0.000000 0.000000 0.000000 0.000000 k
*u
541 426 m
551 431 l
541 420 l
549.599 419.525  554.624 428.468  561 433  c 
559.955 426.226  553.539 421.495  548 417.965  c 
545.809 416.569  542.714 415.721  541.178 413.502  c 
539.904 411.661  539.944 409  539.490 407  c 
537.926 399.699  538.593 389.422  534.772 383  c 
531.705 377.872  522.544 374.380  522.257 367.985  c 
522 363.595  525.635 360.463  529 358.324  c 
536.827 353.356  545 347.209  554 344.442  c 
557 343.471  562.498 341.262  565.610 343  c 
567.982 344.443  569 347.698  570.258 350  c 
572.550 354.416  575 358.803  577.695 363  c 
591.984 385.441  604 411.521  592.370 437.961  c 
589.690 444  582.924 445.372  580 451  c 
600.686 450.769  603.245 424.936  601.833 409  c 
599.505 382.720  580 364.212  572 340  c 
569 331.252  567 321.179  566.171 312  c 
564.877 299  565 285.955  559.243 274  c 
554.427 264  548.359 252.973  538 248.194  c 
531.174 245  523.318 245.935  521 254  c 
524.583 253.534  528.391 251  532 251.760  c 
534.960 252.363  537.607 254.582  540 256.298  c 
550.916 264  555.552 277.745  555.585 291  c 
555.595 295.208  553 298.680  553.464 303  c 
554 309.942  554.810 317.183  556.259 324  c 
557.396 329.347  558.996 333.390  559 339  c 
543.635 339.327  529.799 351.756  514 346  c 
516.916 335  517.261 327  514.590 316  c 
513.758 312.555  513.468 309.198  511.787 306  c 
508.972 300.644  505.526 294.995  502 290  c 
500.191 287.225  496.913 284.520  496.527 281  c 
496.244 278.422  497.582 275.446  498.271 273  c 
500 266.737  501.692 260  504 254  c 
510.365 238.588  526.367 235.893  541 237  c 
548.170 237.682  558.927 241.672  558 250  c 
567.911 252.827 l
578.579 265 l
596.828 300 l
600.298 307 l
601.583 313.791 l
604.416 318.375 l
605 327 l
611.777 328.479  609.199 333.648  609.738 339  c 
610 341.929  612 344.178  612.687 347  c 
613.307 349.668  612.899 352.370  613.838 355  c 
614.689 357.385  616.197 359.376  616.258 362  c 
616.338 365.391  614.317 368.580  614.859 372  c 
615.248 374.460  616.929 376.464  617 379  c 
617.171 381.278  616 383.460  615.969 385.715  c 
615.730 388.843  616.979 391.859  616.867 395  c 
616.770 397.741  615.588 400.284  615.454 403  c 
615.318 405.745  616.861 408.269  616.569 411  c 
616.296 413.550  614.504 415.555  613.892 418  c 
613.398 419.974  613.870 422  613.351 424  c 
612.676 426.560  610.802 428.557  609.853 431  c 
609 433.190  609.296 435.641  608.402 437.791  c 
606 443.435  599.428 449.306  594 451.790  c 
578.782 458.754  564.346 449.545  552 441.356  c 
545.550 437  538.364 435  541 426  c 
f
615 443 m
618.424 432.375  628 435.643  637 436  c 
658.913 437  679.174 445.304  700 451  c 
678 451 l
653 449 l
615 443 l
f
84 450 m
84 449 l
104.449 440.188  126.865 437  149 437  c 
152.661 436.985  157.303 438  160.830 437.247  c 
162.830 436.753  164.624 434.611  166.826 435.341  c 
170 436.427  173.580 443  175 446  c 
148 450.208 l
84 450 l
f
543 445 m
547.945 444.199  550.702 446.776  553 451  c 
548.514 450.438  545.173 449  543 445  c 
f
282 280 m
283.713 283.969  288.298 288.637  288.303 293  c 
288.307 295.831  286.280 298.586  285 301  c 
282.384 306  278.833 311.392  277.471 317  c 
276.267 321.956  278.646 329.361  275.233 333.570  c 
273 336  269 336.682  266 336.910  c 
258.180 337.487  249.697 337.478  242 336  c 
239 335.452  234.786 335.429  232.604 333.258  c 
230.345 331  231.434 327.647  232 325  c 
233.413 320.368  234.233 315.824  233.910 311  c 
233.332 302.344  231.426 292.646  232.649 284  c 
233.287 279.485  235.208 275.286  236.634 271  c 
239 263.798  241.717 257.709  249 254  c 
253.246 252  258.417 252.527  263 252  c 
259.808 245.667  252.856 245.441  247 248.494  c 
237.558 253.415  231.378 263.461  227.174 273  c 
220.265 288.676  221.917 306  216.189 322  c 
211 336.174  204.612 349.924  197.869 363  c 
196.776 365.224  197 367.707  195.968 369.830  c 
195 371.444  193.636 372.590  192.750 374.170  c 
191.599 376.221  191.834 378.623  190.806 380.715  c 
186.885 388.691  182 397.710  181.830 407  c 
181.716 411.284  183 416.866  184.300 421  c 
185.635 425.770  187.483 431.992  190.789 435.771  c 
191.926 437  196.514 440.223  197.218 436.706  c 
197.766 433.970  192.323 428.688  191 425.999  c 
187.975 418.650  187.591 410.705  189.901 403  c 
195.265 385  204.905 369.234  215.413 354  c 
218.186 349.979  220.270 342.577  224.275 339.785  c 
227.481 337.550  231.752 339.749  235 340.833  c 
243.867 343.795  258.323 348.273  263.199 357  c 
265.399 360.994  261.768 363.867  259.813 367  c 
255.781 373.465  253.356 381.740  251.179 389  c 
249 395.753  247.930 403.943  248 411  c 
248 415.219  250.204 420.746  248.397 424.772  c 
246 430  238.253 426.395  234 428.509  c 
228.866 431  224.732 434.981  219.830 437.688  c 
218 438.672  215.965 438.923  214.209 439.969  c 
212.243 441  210.964 443.214  208.791 444  c 
206.975 444.783  205 444.388  203.170 444.854  c 
201.347 445.313  199.854 446.796  197.925 446.848  c 
196 446.898  194.395 445.667  192.576 445.401  c 
189.697 444.980  187.617 445  185 443.433  c 
163.688 430.396  163.390 405.205  164.910 383  c 
165.229 378.343  164.725 373.651  165.170 369  c 
166 360  168.458 351.589  170.650 343  c 
173.912 330.219  177.474 317  182.904 305  c 
187.452 294.865  193.613 285.607  199 276  c 
207.831 260.838  218.579 243.369  236 237.259  c 
247.494 233.228  264 233.336  273.871 241.174  c 
280.555 246.491  284.991 255.312  288.225 263  c 
290.612 268.677  293.739 274.257  295.863 280  c 
296.809 282.560  297 285.473  294.682 287.381  c 
289.438 291.653  285.798 282  282 280  c 
f
395.377 444.673 m
392 440.808  399.574 436  401.824 439.554  c 
403.460 442  396.894 446.436  395.377 444.673  c 
f
375 437 m
377.968 434.423  380.577 427.853  384.260 426.712  c 
388.425 425.422  394 430.860  393 435  c 
392.278 438.692  388.235 442  386 445  c 
385 445 l
383 441  383.669 437.279  379 436  c 
380 445 l
375.288 443  372 439.463  367.831 436.993  c 
365.623 435.729  362.663 435.604  361.693 432.852  c 
360 428.481  363.176 422.882  368 425.762  c 
372.298 428.328  373.772 432.461  375 437  c 
f
*U
0.000000 0.000000 0.000000 1.000000 k
*u
330 442 m
331.502 437.823  333.639 436.490  338 436  c 
334 443 l
330 442 l
f
*U
0.000000 0.000000 0.000000 0.000000 k
*u
403 434 m
404.750 431  414 425.259  415 432  c 
415.552 435.412  411 438.505  408.174 437.738  c 
406.248 437.239  404.476 435.227  403 434  c 
f
126 435 m
126.347 434.306  127 432.855  127 435  c 
126 435 l
f
*U
0.000000 0.000000 0.000000 1.000000 k
*u
331 435 m
330 434 l
330 432 l
336 431 l
331 435 l
f
553 416 m
554 415 l
561.352 418  567.937 424.878  569 433  c 
560.671 424.184 l
553 416 l
f
*U
0.000000 0.000000 0.000000 0.000000 k
*u
55 425 m
55 424 l
62.584 420.737  70 421  78 419.532  c 
81.775 418.825  85.223 416.985  89 416.329  c 
91.972 415.812  95 416  98 415.829  c 
109.489 414.680  120.405 413.269  132 412.985  c 
139.730 412.796  150.464 409.537  157.722 413.514  c 
161.871 415.787  162.195 422.853  163 427  c 
136 429 l
78 427.830 l
55 425 l
f
396 428.968 m
393.478 427.405  389.634 425.193  389 421.911  c 
388.336 416.179  394.227 415  397.996 417.407  c 
400.358 418.857  403.236 421  403.534 424  c 
403.910 427.786  399.432 431  396 428.968  c 
f
721 428 m
708.282 428  695.728 429.264  683 429  c 
674.338 428.843  665.664 429  657 428.999  c 
652.964 428.980  649 428  645 428  c 
639.385 428  632.398 429  627 426.968  c 
621 424.561  623 414.958  628.274 412.603  c 
633.328 410.302  640.682 412.958  646 412.995  c 
649.303 413  652.728 412.231  656 412.546  c 
659 412.840  661.943 414.249  665 414.699  c 
669.633 415.382  674.353 414.716  679 415.286  c 
686 416  692.956 418  700 419.205  c 
705.914 420  718.747 421.815  721 428  c 
f
374.982 427 m
371.500 425.275  367.512 422.394  367.453 418  c 
367.407 414.638  370.703 408  374.870 410  c 
378.279 411.763  382 417  381.681 421  c 
381.348 423.988  378.764 429  374.982 427  c 
f
429 418 m
428.365 419.867  427.829 421.408  426.566 422.981  c 
425.829 423.898  424.943 424.895  423.956 425.551  c 
421 427.431  415.390 427.871  415.331 422.957  c 
415.279 418.621  420.178 415.815  423.979 416.222  c 
425.878 416.426  427.314 417.189  429 418  c 
f
*U
0.000000 0.000000 0.000000 1.000000 k
*u
566 417 m
570.672 419  574.177 421.778  575 427  c 
566 417 l
f
*U
0.000000 0.000000 0.000000 0.000000 k
*u
356 426 m
352.554 419.429  345.843 409.806  355 405  c 
361 418 l
358 426 l
356 426 l
f
407 419.853 m
404 418.195  399.554 415.557  398.752 411.961  c 
397.586 406.736  404.606 402.196  408.985 404.533  c 
412.173 406.235  416 410  415.433 413.986  c 
414.974 417  410.486 421.836  407 419.853  c 
f
392 410 m
390.531 412.330  388.378 415.912  385 415.694  c 
381 415.427  376 406.619  376.412 403  c 
376.713 399.176  380.806 395.917  383.831 399.333  c 
385 400.737  385.982 402.505  387 403.996  c 
388.699 406  390.378 408  392 410  c 
f
363.260 411.654 m
359.707 408.936  356.739 402.590  357.423 398  c 
357.814 395.371  359.915 390  363.465 392  c 
367 394.199  370.973 401.926  369.667 405.999  c 
369 407.573  365.754 413.563  363.260 411.654  c 
f
426 403 m
424.408 404.721  422.447 407.598  419.909 407.941  c 
415.659 408.517  410.635 402  411.851 398  c 
414.247 390.236  425.269 395.757  427 401  c 
428.239 400.618  429.729 399.960  431 399.770  c 
437 398.893  434.473 403.708  432.949 406.985  c 
432.258 408.471  431.914 410.784  430.406 411.712  c 
428 413  425.934 411  425.653 408.895  c 
425.420 407  425.957 404.867  426 403  c 
f
104 411 m
109 409 l
104 411 l
f
338 411 m
338 410  338 408.828  338.434 407.948  c 
341 401.605  347.538 407.226  341.896 410.397  c 
340.773 411  339.211 410.908  338 411  c 
f
145.400 408.216 m
145.884 408.216 l
145.400 408.216 l
f
155 408.216 m
155.600 408.216 l
155 408.216 l
f
626 405 m
628.742 393.742 l
637 392 l
656 391.170 l
681 391.910 l
704 393.209 l
714 395.546 l
723 395.755 l
746 400 l
743.905 403.231  741.541 402.582  738 403.273  c 
735.245 403.811  732.815 405.418  730 405.687  c 
726.265 406  722.799 405  719 405.805  c 
707.573 407.880  696.387 405.624  685 406.209  c 
665.605 407.205  645.182 409.580  626 405  c 
f
392 404.914 m
388.902 402.493  385 397.406  385.531 393  c 
386 388  392 385.505  395.960 388.333  c 
398.407 390  403 394.551  402.748 397.950  c 
402.406 401.184  395.479 407.463  392 404.914  c 
f
32 396 m
32 393 l
35.463 392.780  38.582 391.513  42 391  c 
46.642 390.608  51.350 391.285  56 390.714  c 
65 389.599  73.943 387.369  83 386.285  c 
87.651 385.729  92.338 386.230  97 385.910  c 
107.697 385.178  118.247 383.987  129 384  c 
133 384  136.967 384.700  141 384.897  c 
147.292 385.204  157.471 382.669  159.552 391  c 
160.317 394  159.891 400.633  156.683 402.258  c 
153.967 403.634  149.943 403.000  147 403  c 
141.240 403  135.721 403.286  130 403.830  c 
97.289 406.943  64.225 400  32 396  c 
f
349 403 m
349 392.920  349 383  354 374  c 
356 374 l
359.507 380  361.180 385.556  356.648 391.701  c 
355.545 393.197  353.771 394  352.725 395.545  c 
350.941 398  351.352 400.641  349 403  c 
f
756 401 m
757.927 398  759.987 398.180  762 401  c 
756 401 l
f
*U
0.000000 0.000000 0.000000 1.000000 k
*u
393 400 m
393.347 399.306  394 397.855  394 400  c 
393 400 l
f
*U
0.000000 0.000000 0.000000 0.000000 k
*u
372.206 397.654 m
368.599 395.167  365 389.613  365.414 385  c 
365.593 381.813  368.887 376.537  372.625 378.752  c 
376 380.802  380 387.989  378.957 391.999  c 
378.447 393.818  374.839 399.470  372.206 397.654  c 
f
*U
0.000000 0.000000 0.000000 1.000000 k
*u
478 399 m
478.568 395.418  479.508 394  483 393  c 
482.570 396.741  481.814 398.339  478 399  c 
f
*U
0.000000 0.000000 0.000000 0.000000 k
*u
405.325 393.867 m
402.666 391.761  398.308 387.613  397.917 384  c 
397.361 378.887  404.332 376.517  407.816 379.336  c 
410.382 381.413  414.209 386.337  413.263 389.895  c 
412.604 392.375  407.883 395.893  405.325 393.867  c 
f
423 392 m
426.228 385.623  432.971 388  432 395  c 
423 392 l
f
*U
0.000000 0.000000 0.000000 1.000000 k
*u
469 394 m
480 384 l
479.541 390.310  475.767 395.550  469 394  c 
f
*U
0.000000 0.000000 0.000000 0.000000 k
*u
381.299 385.867 m
378.651 383.459  375.662 377.978  376.778 374.185  c 
377.983 370  383.416 368.652  386.467 371.449  c 
389 373.776  391 378.520  389.647 381.895  c 
388.713 384  383.799 388  381.299 385.867  c 
f
421 373 m
422 369 l
425.725 371.304  425.447 374  424 378  c 
431 379 l
429.621 381  428 381.906  425.981 383  c 
423.905 384.266  421.478 386  419 386  c 
414.633 386  408.671 378.381  409.748 374  c 
411.315 367.879  417.971 369.674  421 373  c 
f
732 368 m
726 373.170  714.613 374.492  707 375.920  c 
698.912 377.436  691 380.270  683 381.679  c 
677 382.721  670.988 382.459  665 383.184  c 
659.859 383.808  656.274 385.416  651 384.499  c 
646.920 383.790  642 383.274  638 383.353  c 
633.405 383.442  628.184 385.488  627.248 378.985  c 
625.594 367.493  643.938 369.743  651 368.950  c 
655.954 368.393  661 367  666 367  c 
669.706 367  673.271 368.177  677 367.823  c 
680.380 367.501  683.603 366.339  687 366  c 
696.401 365.401  705.664 366.551  715 366.961  c 
720.652 367.208  726.446 366.945  732 368  c 
f
454 373 m
464 383 l
457.898 383.698  452.615 379.284  454 373  c 
f
111 381 m
111 379 l
115.189 378.473  119.270 377  122 381  c 
111 381 l
f
128 380 m
128 379 l
138 380 l
128 380 l
f
362.355 377.824 m
359.704 375.401  358.269 371.622  359.607 368  c 
360.711 365  364.471 362  367.436 364.623  c 
370.412 367.218  369.896 372  367.848 374.941  c 
367 376  364 379.459  362.355 377.824  c 
f
384 356 m
394.374 358.716  408.550 355.355  414 367  c 
408.198 369  405.671 368.995  401 365  c 
401.611 367.708  403 371  401.728 373.786  c 
399.685 377.883  394 378.744  391.483 374.851  c 
390.329 373  389 370.413  389.728 368.259  c 
390 366.663  393.521 364.421  392 362.653  c 
389.405 359.371  384.367 364.452  383.505 358  c 
384 356 l
f
55 360 m
64.389 360  73.668 358  83 358  c 
91.976 358  101 359.298  110 359.910  c 
118.692 360.506  127.311 359.962  136 360.831  c 
140.415 361.272  144.621 362  149 362.700  c 
151.253 363  153.801 362.734  155.941 363.603  c 
159.321 364.977  160.308 368.607  158.963 371.852  c 
157.709 374.876  154.835 374.890  151.999 375.281  c 
146.187 376  140.776 375.278  135 375.499  c 
114.829 376.272  93.508 374  74 368.279  c 
67.777 366.433  58.212 366  55 360  c 
f
312 364 m
315.371 362.378  319.177 361.312  322.941 362.434  c 
325.180 363  327.339 365  326.338 367.698  c 
323.726 374.354  314 366.879  312 364  c 
f
469 369 m
469 368 l
477 368 l
477 370 l
469 369 l
f
382 366 m
380.723 366.665  379.405 367.549  377.960 367.847  c 
368.746 369.752  370.896 354.573  378.467 359.617  c 
379.316 360.183  379.878 361.193  380.428 362  c 
381.257 363.249  381.555 364.611  382 366  c 
f
303 366 m
303.347 365.306  304 363.855  304 366  c 
303 366 l
f
511 355 m
511 353 l
526 353 l
522.173 360.461  517 357.981  511 355  c 
f
84 340 m
88.993 336.589  96.191 338.206  102 337.961  c 
117.212 337.319  131.810 337.963  147 339  c 
153.212 339.459  164.687 340.546  163.676 349  c 
162.341 360  150.284 355.659  143 355  c 
122.434 353.483  103.892 344.602  84 340  c 
f
258 345 m
258 343 l
262.232 340.964  271.221 339  275.505 342  c 
279 344.427  281.579 351  283 355  c 
270 356.188 l
258 345 l
f
*U
0.000000 0.000000 0.000000 1.000000 k
*u
691 356 m
693.554 351.613  699.171 350  704 351  c 
704 353 l
691 356 l
f
385 288 m
381.255 286.835  378.605 283.939  374.999 282.367  c 
367.911 279.276  357 280.615  351.558 286.394  c 
346.533 291.661  345.977 300  338.985 303.836  c 
336.480 305.194  333.544 305.445  331 306.764  c 
326.213 309.245  322 312.460  317 314.302  c 
311.818 316  305.568 316.755  301.329 320.558  c 
289.499 331.168  299.345 346  311 351  c 
308.593 358.248  298 352.951  294.638 348.787  c 
288.616 341.612  288 329  292 321  c 
297.363 310.239  310.821 311  320 305.652  c 
324.643 302.931  328.487 299.278  331.715 294.996  c 
334.689 291  337.368 286.767  341.170 283.529  c 
349.635 276.319  363.481 272  374 276  c 
379.975 278.380  383.969 281.524  385 288  c 
f
*U
0.000000 0.000000 0.000000 0.000000 k
*u
361 352 m
361.600 351.925 l
361 352 l
f
428 352 m
434 345 l
428 352 l
f
*U
0.000000 0.000000 0.000000 1.000000 k
*u
405 343 m
411 333 l
412 333 l
413 336 l
420 327 l
420.877 331.490  418.809 339  414.529 341.746  c 
412 343.266  407.858 342.832  405 343  c 
f
420 342 m
427 326 l
429 326 l
430.278 332.613  425.903 339.216  420 342  c 
f
*U
0.000000 0.000000 0.000000 0.000000 k
*u
681 324 m
681 326 l
674.686 329.314  667.725 330.439  661 332.595  c 
651.961 335.493  642.587 340.203  633 340.910  c 
626.216 341.410  621.193 341.278  619 334  c 
618.604 332.506  618 330.786  618.411 329.214  c 
619.485 323.891  628.946 324.268  633 323.834  c 
648.592 322  665.598 320.206  681 324  c 
f
111 317 m
111 315 l
116.565 313.355  122.271 314.214  128 314.290  c 
138.717 314.433  148.522 314.853  159 317.346  c 
165.603 318.916  171.222 319.928  169.479 327.995  c 
169.169 329.432  168.964 331.224  167.987 332.397  c 
165.198 335.743  156.652 333.894  153 333.195  c 
138 330.352  124.361 323.617  111 317  c 
f
395 312 m
396.342 312.398  397.599 312.497  398.611 313.603  c 
399.514 314.589  400.302 315.662  400.551 317  c 
400.961 319.254  400.840 321.752  399.258 323.551  c 
396.430 326.768  392.909 324.537  392.333 320.956  c 
392 319.659  392.566 318.240  392.955 317  c 
393.501 315.319  394.325 313.657  395 312  c 
f
656 302 m
653.342 304.571  650.293 305.390  647 306.981  c 
639.404 310.650  632 313  624 315.282  c 
619.459 316.493  613 318.494  611.631 311.999  c 
610.457 306.602  617.217 305.731  621 304.735  c 
631.532 301.961  645.334 298.847  656 302  c 
f
636 283 m
633.375 290  623.451 292.246  617 294.999  c 
614.473 296  611 298  608.263 297  c 
604.412 295.822  602.274 289.578  605.333 286.653  c 
607.848 284.249  611.764 283.999  615 283.389  c 
617.995 282.824  620.945 282.174  624 282  c 
628 281.859  632 281.844  636 283  c 
f
155 274 m
162.227 272.807  168.924 274.741  176 275.981  c 
179.421 276.581  183.856 276.530  186.678 278.854  c 
190.395 281.915  187.616 288  183.895 289.883  c 
181.551 291  178.480 290.187  176 290  c 
177 295 l
168.687 286.901 l
155 274 l
f
615 268 m
613.982 270.627  612.816 272.836  610.811 274.893  c 
607.779 278  601.689 281.209  597.214 279.382  c 
589.774 276.346  594.944 269.759  600 268.301  c 
602.263 267.649  604.652 267.245  607 267  c 
609.841 266.903  612.299 267.202  615 268  c 
f
174 258 m
177.673 258  181.360 257.870  185 258.439  c 
188.697 259  194.792 259.564  197.353 262.652  c 
200.257 266  195.713 272.410  191.985 273.172  c 
189.417 273.697  186.928 271.919  185 270.467  c 
180.727 267.248  175.531 263.219  174 258  c 
f
498 256 m
493.351 267.771 l
487.410 269.863 l
487 264.169 l
498 256 l
f
257 222 m
269 223 l
256.549 207 l
257.603 196 l
267.985 197.703 l
279 210 l
284 206 l
285.171 219.447  286.214 235.743  294.490 246.996  c 
299.616 253.966  309 257.442  313 265  c 
309 266.828  305 268.776  301.390 265.424  c 
297.872 262.278  296.398 256.915  293.895 253  c 
290.600 247.845  285.620 243  281 239  c 
273.571 232.742  261.408 231.367  257 222  c 
f
489 230 m
496.339 226  493 217.849  487.981 213.300  c 
477.977 204.379  467.938 201  455 199.424  c 
435.827 196.906  418.913 209.860  400 209.995  c 
389.861 210  378.755 208.320  369 205.611  c 
356.622 202.174  343.989 197.396  331 200.627  c 
322 202.846  310.601 207  304.344 214  c 
298.942 220.233  299.811 230.967  306 236  c 
306.556 230.900  303.649 224.744  306 220  c 
308.667 214.748  314.893 212.270  320 210  c 
336.332 203.337  350.652 206.724  367 211.255  c 
372.563 212.796  378.349 213.640  384 214.801  c 
386.728 215.361  390.323 215.728  391.971 218.303  c 
393.776 221  392.460 224.953  392.170 228  c 
391.408 236  391.579 244  389.555 252  c 
388.669 255.447  387 259.731  382.981 260  c 
376.435 260.690  368.597 256  362 255.289  c 
359 254.910  355 255.717  352.499 253.972  c 
350.304 252.461  349.562 249.283  348.441 247  c 
347 244  345.310 242  343 240  c 
348 255 l
345 256 l
341.932 250.187  340.193 243.208  334 240  c 
340 256 l
327 242 l
330.208 246.870  337.918 254.405  333 260  c 
329.531 254.916  326.184 248.772  320 247  c 
322.847 250.454  326.993 253.478  328 257.996  c 
328.728 260.241  328.459 263.212  325.772 263.878  c 
321.663 264.896  316.472 258.694  313.421 256.475  c 
310.195 254  306.388 252.669  303.285 250.200  c 
296.448 244.760  290.936 235.648  289.468 227  c 
288.889 223.583  289.662 220.398  289.911 217  c 
290.221 212.777  290 208  291.588 204  c 
294.889 195.493  304.964 187  313 183.327  c 
316.613 181.627  320.298 181.623  324 180.444  c 
326.432 179.670  328.482 178  331 177.503  c 
333.344 176.997  335.673 177.307  338 176.562  c 
343.402 174.835  349.364 172.898  355 172  c 
357.980 171.744  361 172.428  364 171.877  c 
366 171.493  367.911 170.202  370 169.993  c 
373 169.679  375.807 171.956  379 171.729  c 
382 171.507  384.823 169.427  388 169.553  c 
390.791 169.664  393 171.779  395.910 171.728  c 
398.504 171.681  400.327 169.496  403 169.615  c 
407.805 169.824  411.396 173.688  416 174.234  c 
418.397 174.518  420.626 173.416  423 173.394  c 
426.200 173.364  428.880 175.310  432 175.552  c 
434.389 175.737  436.606 174.555  439 174.749  c 
442.702 175  445.426 178  449 178.533  c 
451.789 178.879  454 177  456.985 178  c 
460 179  461.526 181.897  464.170 183.399  c 
466.983 184.997  470 183  472.957 184.491  c 
476 185.996  477.363 189.397  480.209 191  c 
482.220 192.337  484.724 192  486.606 193.613  c 
488.848 195.417  489.417 198.480  491.498 200.416  c 
493.516 202.294  496 202.678  497.657 205  c 
499.982 208.822  503 214.728  503.772 219  c 
505.190 227.314  500.368 238.930  494.870 244.985  c 
490.855 249.407  485.581 251.714  481 255.379  c 
476.990 258.587  472.922 265.817  467.910 267.223  c 
463.508 268.458  458 264.959  454 263.782  c 
447.458 261.904  440.732 262.000  434 262  c 
425.661 262  414.331 266.239  406.415 262.397  c 
402.922 260.701  402.228 255.363  401.579 252  c 
400 244.534  398.489 237.567  397.739 230  c 
397.441 226.986  396.427 223  397.628 220  c 
398.746 217.433  401.462 217.195  404 216.719  c 
409.471 215.694  414.699 214.000  420 212.347  c 
426.395 210.353  433.464 207.559  440 206.340  c 
450 204.450  462.501 205.818  472 209.630  c 
481.529 213.454  488.771 219.302  489 230  c 
f
394 250 m
396 250 l
397.972 253.704  401.269 259.460  399.393 263.772  c 
397.906 267.188  392 267.681  390.927 263.772  c 
389.753 260  393 253.705  394 250  c 
f
585.290 260.957 m
583.433 259.464  580.427 257  581.342 254.275  c 
582.517 250.662  591.592 248  594.381 250.782  c 
598.694 254.895  590 264.792  585.290 260.957  c 
f
203 254 m
204 257 l
199.761 256.289  196.741 253.303  194.576 249.576  c 
192.973 246.815  193.251 243.494  197 243.448  c 
200 243.411  204.386 244.809  206.681 246.854  c 
211 250.731  207 253.677  203 254  c 
f
566 238 m
566.930 237.664  568 237  569 236.883  c 
577.943 234.912  572 245.835  567 240.827  c 
566.331 240  566.244 238.802  566 238  c 
f
212 232 m
213.752 231.498  215 231  217 231.248  c 
217.983 231.355  219 231.570  219.941 232  c 
221.599 232.850  223.364 233.990  223.364 236  c 
223.364 239.385  218.676 242.843  215.652 240.928  c 
214.318 240  213.721 238.414  213.225 237  c 
212.653 235.381  212.351 233.680  212 232  c 
f
508 239 m
508.769 235.595  510.488 232.492  510.903 229  c 
511.946 220.215  507.442 206.353  519 204  c 
519.386 208.237  520.280 210.773  524 213  c 
525.480 207  527.512 201.723  532.209 197.484  c 
533.749 196  537 193.524  538.972 195.661  c 
540.318 197  540 200.174  539.941 202  c 
539.355 209.812  532.839 215.522  528 221  c 
530.758 221.481  536.242 219.493  538.353 221  c 
541.527 223.471  537 228.237  534.895 229.348  c 
530.336 231.654  524.812 231.536  520 233  c 
515.696 234.412  512 237  508 239  c 
f
229 222 m
231.884 222.297  238.762 223.441  238 227.769  c 
237.634 230.583  231.966 232.581  230 230.353  c 
228.336 228.409  229 224.373  229 222  c 
f
557 220 m
556.290 223.672  554.688 227.924  551.482 230.215  c 
549.574 231.578  546.443 231.545  545 229.344  c 
541.605 223.696  553.547 220.354  557 220  c 
f
247 226 m
239 205 l
245.726 204  249.226 211  250.481 217  c 
251.366 221  251.242 224.592  247 226  c 
f
509 198 m
518.265 183 l
528 173 l
527.997 178.236  528 184.210  525.547 188.956  c 
522.633 194.304  514.756 197.407  509 198  c 
f
268 164 m
272.824 165.428  274 169  276.788 172.996  c 
282 180.342  287.412 185.666  289 195  c 
274.938 189.277 l
272.293 182 l
268 164 l
f
513 153 m
512.789 163.233  508.989 173.695  504.914 183  c 
503.858 185.410  501.737 191.745  498 190.654  c 
495 189.738  492.216 185  492.886 182  c 
493.523 179  496 176.527  497.655 174  c 
501.736 167  505.543 156.668  513 153  c 
f
284 143 m
285 142 l
292.724 146  294.355 158.637  298 166  c 
299.809 169.335  302.747 173.190  303 177  c 
303.535 180.944  298.576 187  294.228 186.168  c 
290.795 185.385  290.244 178.792  289.593 176  c 
287 165  286 153.962  284 143  c 
f
255 186 m
254 181 l
259 185 l
255 186 l
f
495 128 m
494.999 134.991  493.698 141  492.463 148  c 
491.610 152.721  490.871 157.337  489.664 162  c 
488.657 165.889  486.743 173.774  483.567 176.381  c 
480.394 178.986  474.387 176.572  473.322 172.787  c 
472.343 169.311  473.907 165.254  475 162  c 
477.891 153.437  482.180 144.999  486.364 137  c 
488.596 132.734  489.911 128.861  495 128  c 
f
300 125 m
304 127.349  305.422 130.886  307.410 135  c 
311.344 143  315.395 152  317 161  c 
318 165.922  320.656 173  314 175.199  c 
308.664 176.920  307 168.607  306 165  c 
303.548 155.465  301.744 145.824  300.907 136  c 
300.574 132  299.186 128.906  300 125  c 
f
471 108 m
474.713 111.910  472.380 117.953  472 123  c 
471.376 135  469.989 147.265  466.505 159  c 
465.598 162  465.470 167  463 169.382  c 
460.236 172.320  451.358 169.767  450.333 165.856  c 
448.997 160.765  452.407 152.822  454 148  c 
455.926 142.174  458.911 136.828  460.806 131  c 
463.354 123.168  467.293 115.364  471 108  c 
f
326 170 m
319.615 142 l
318.410 130 l
317 108 l
319 108 l
329.194 136 l
334.245 153 l
334.357 167.486 l
326 170 l
f
340 86 m
347 88.479  346.313 102.696  347.209 109  c 
348 115  350.823 120.865  351.700 127  c 
352.675 133.824  352 141  352 148  c 
352 152.743  352.956 159.386  350.486 163.686  c 
347.732 168.481  341 166.575  339.653 161.981  c 
337.257 154.683  339.965 145.511  339.999 138  c 
340 130.943  339 124  339 117  c 
338.984 106.660  340 96.381  340 86  c 
f
447 85 m
452.657 88.681  450.930 97  450.645 103  c 
450.289 110.501  448.788 117.642  448 125  c 
447.420 132.361  447.439 139.627  446.424 147  c 
445.802 151.516  446.184 159.657  443 163.258  c 
440.495 166  434 165.267  432.607 161.772  c 
431 158  432.800 151.861  433 148  c 
433.391 143.959  434.485 140  434.950 136  c 
435.759 128.991  437.270 121.983  438.301 115  c 
439.208 108.860  441.821 102.978  443.395 97  c 
444.516 92.742  444.919 88.970  447 85  c 
f
368 50 m
370.638 53  370.773 56  371.282 60  c 
372 66.350  373 72.611  373 78.999  c 
373 92.939  374.352 107  374.961 121  c 
375.209 126.671  374.320 132.365  374.665 138  c 
374.986 143.241  376.971 155.263  373 159.400  c 
371.375 161.310  367.509 161.745  365 161.772  c 
360.771 161.818  360 158.608  359.769 154.999  c 
359 148.704  360 141.958  360.193 135.615  c 
360.689 117.968  362.703 100.636  363.910 83  c 
364.668 71.937  362.995 60.341  368 50  c 
f
413 160 m
415 135 l
416.816 126 l
417.170 115 l
419.715 99 l
428 63 l
430 63 l
432.259 70.643  430.605 79  430.710 87  c 
430.939 104.214  432.586 122  428.745 139  c 
427.654 143.809  427.175 149  426.676 154  c 
426.461 156  427 159.415  425.219 160.972  c 
423.265 162.660  419.338 162  417 161.620  c 
415.521 161.346  414.380 160.664  413 160  c 
f
379 158 m
379 144 l
380 144 l
379 158 l
f
379.494 139 m
379.499 138.984  379.506 138.978  379.506 139  c 
379.494 139 l
f
340 77.907 m
340 77.806  340 77.771  340.198 77.870  c 
340 77.907 l
f
*U
0.000000 0.000000 0.000000 1.000000 k
*u
402 27 m
401 12 l
406.661 14.847  409.379 24.559  402 27  c 
f
*U
%%Trailer
%%EOF
